[gd_resource type="Environment" load_steps=3 format=2]

[ext_resource path="res://assets/winter_lake_sky.hdr" type="Texture" id=1]

[sub_resource type="PanoramaSky" id=1]
panorama = ExtResource( 1 )

[resource]
background_mode = 3
background_sky = SubResource( 1 )
background_color = Color( 1, 1, 1, 1 )
ambient_light_color = Color( 0, 0.647059, 1, 1 )
ambient_light_energy = 0.75
ambient_light_sky_contribution = 0.9
adjustment_enabled = true
adjustment_contrast = 1.1
adjustment_saturation = 1.33
