[gd_scene load_steps=3 format=2]

[ext_resource path="res://assets/kenney_holiday_pack/cabinWindowHalf.glb" type="PackedScene" id=1]

[sub_resource type="BoxShape" id=1]
extents = Vector3( 0.5, 0.25, 0.025 )

[node name="CabinWindowHalf" instance=ExtResource( 1 )]

[node name="cabinWindowHalfClone" parent="." index="0"]
transform = Transform( 1, 0, 0, 0, 1, 0, 0, 0, 1, -0.5, 0, 0 )

[node name="CollisionShape" type="CollisionShape" parent="." index="1"]
transform = Transform( 1, 0, 0, 0, 1, 0, 0, 0, 1, 0, 0.25, 0 )
shape = SubResource( 1 )
