[gd_scene load_steps=3 format=2]

[ext_resource path="res://assets/kenney_holiday_pack/cabinDoor.glb" type="PackedScene" id=1]

[sub_resource type="BoxShape" id=1]
extents = Vector3( 0.5, 0.5, 0.025 )

[node name="CabinDoor" instance=ExtResource( 1 )]

[node name="cabinDoorClone" parent="." index="0"]
transform = Transform( -1, 0, -8.74228e-08, 0, 1, 0, 8.74228e-08, 0, -1, 0.5, 0, 0 )

[node name="CollisionShape" type="CollisionShape" parent="." index="1"]
transform = Transform( -1, 0, 3.25841e-07, 0, 1, 0, -3.25841e-07, 0, -1, 0, 0.5, 0 )
shape = SubResource( 1 )
