[gd_scene load_steps=3 format=2]

[ext_resource path="res://assets/kenney_holiday_pack/cabinCorner.glb" type="PackedScene" id=1]

[sub_resource type="BoxShape" id=1]
extents = Vector3( 0.0794832, 0.5, 0.0796577 )

[node name="CabinCorner" instance=ExtResource( 1 )]

[node name="cabinCornerClone" parent="." index="0"]
transform = Transform( -1, 0, -8.74228e-08, 0, 1, 0, 8.74228e-08, 0, -1, 0, 0, 0 )

[node name="CollisionShape" type="CollisionShape" parent="." index="1"]
transform = Transform( 1, 0, 0, 0, 1, 0, 0, 0, 1, 0.0232328, 0.5, -0.0210905 )
shape = SubResource( 1 )
