[gd_scene load_steps=3 format=2]

[ext_resource path="res://assets/kenney_holiday_pack/cabinRoofChimney.glb" type="PackedScene" id=1]

[sub_resource type="ConcavePolygonShape" id=1]
data = PoolVector3Array( 1.2054, -0.0933, 0.09, 1.1752, -0.1331, 0.09, 0, 0.76, 0.09, 0, 0.76, 0.09, 1.0547, 0.0212, 0.09, 1.2054, -0.0933, 0.09, 1.0547, 0.0212, 0.09, 1.2054, -0.0648, 0.09, 1.2054, -0.0933, 0.09, 0, 0.76, 0.09, 0.9041, 0.1357, 0.09, 1.0547, 0.0212, 0.09, 0.9041, 0.1357, 0.09, 1.0547, 0.0497, 0.09, 1.0547, 0.0212, 0.09, 0, 0.76, 0.09, 0.7534, 0.2502, 0.09, 0.9041, 0.1357, 0.09, 0.7534, 0.2502, 0.09, 0.9041, 0.1642, 0.09, 0.9041, 0.1357, 0.09, 0, 0.76, 0.09, 0.6027, 0.3647, 0.09, 0.7534, 0.2502, 0.09, 0.6027, 0.3647, 0.09, 0.7534, 0.2788, 0.09, 0.7534, 0.2502, 0.09, 0, 0.76, 0.09, 0.452, 0.4793, 0.09, 0.6027, 0.3647, 0.09, 0.452, 0.4793, 0.09, 0.6027, 0.3933, 0.09, 0.6027, 0.3647, 0.09, 0, 0.76, 0.09, 0.452, 0.5078, 0.09, 0.452, 0.4793, 0.09, 0, 0.76, 0.09, 0.3014, 0.5938, 0.09, 0.452, 0.5078, 0.09, 0, 0.76, 0.09, 0.3014, 0.6223, 0.09, 0.3014, 0.5938, 0.09, 0, 0.76, 0.09, 0.1507, 0.7083, 0.09, 0.3014, 0.6223, 0.09, 0, 0.76, 0.09, 0.1507, 0.7368, 0.09, 0.1507, 0.7083, 0.09, 0, 0.76, 0.09, 0, 0.8228, 0.09, 0.1507, 0.7368, 0.09, 0, 0.76, -1.09, 1.1752, -0.1331, -1.09, 1.2054, -0.0933, -1.09, 1.2054, -0.0933, -1.09, 1.0547, 0.0212, -1.09, 0, 0.76, -1.09, 1.2054, -0.0933, -1.09, 1.2054, -0.0648, -1.09, 1.0547, 0.0212, -1.09, 1.0547, 0.0212, -1.09, 0.9041, 0.1357, -1.09, 0, 0.76, -1.09, 1.0547, 0.0212, -1.09, 1.0547, 0.0497, -1.09, 0.9041, 0.1357, -1.09, 0.9041, 0.1357, -1.09, 0.7534, 0.2502, -1.09, 0, 0.76, -1.09, 0.9041, 0.1357, -1.09, 0.9041, 0.1642, -1.09, 0.7534, 0.2502, -1.09, 0.7534, 0.2502, -1.09, 0.6027, 0.3647, -1.09, 0, 0.76, -1.09, 0.7534, 0.2502, -1.09, 0.7534, 0.2788, -1.09, 0.6027, 0.3647, -1.09, 0.6027, 0.3647, -1.09, 0.452, 0.4793, -1.09, 0, 0.76, -1.09, 0.6027, 0.3647, -1.09, 0.6027, 0.3933, -1.09, 0.452, 0.4793, -1.09, 0.452, 0.4793, -1.09, 0.452, 0.5078, -1.09, 0, 0.76, -1.09, 0.452, 0.5078, -1.09, 0.3014, 0.5938, -1.09, 0, 0.76, -1.09, 0.3014, 0.5938, -1.09, 0.3014, 0.6223, -1.09, 0, 0.76, -1.09, 0.3014, 0.6223, -1.09, 0.1507, 0.7083, -1.09, 0, 0.76, -1.09, 0.1507, 0.7083, -1.09, 0.1507, 0.7368, -1.09, 0, 0.76, -1.09, 0.1507, 0.7368, -1.09, 0, 0.8228, -1.09, 0, 0.76, -1.09, 0, 0.8228, -1.09, 0, 0.8228, 0.09, 0, 0.76, 0.09, 0, 0.76, 0.09, 0, 0.76, -1, 0, 0.8228, -1.09, 0, 0.76, -1, 0, 0.76, -1.09, 0, 0.8228, -1.09, 0.9041, 0.1357, -1.09, 0.9041, 0.1357, 0.09, 0.9041, 0.1642, 0.09, 0.9041, 0.1642, 0.09, 0.9041, 0.1642, -1.09, 0.9041, 0.1357, -1.09, 1.1752, -0.1331, -1.09, 1.1752, -0.1331, 0.09, 1.2054, -0.0933, 0.09, 1.2054, -0.0933, 0.09, 1.2054, -0.0933, -1.09, 1.1752, -0.1331, -1.09, 0.1507, 0.7083, -1.09, 0.1507, 0.7083, 0.09, 0.1507, 0.7368, 0.09, 0.1507, 0.7368, 0.09, 0.1507, 0.7368, -1.09, 0.1507, 0.7083, -1.09, 0.3014, 0.5938, -1.09, 0.3014, 0.5938, 0.09, 0.3014, 0.6223, 0.09, 0.3014, 0.6223, 0.09, 0.3014, 0.6223, -1.09, 0.3014, 0.5938, -1.09, 1.2054, -0.0933, -1.09, 1.2054, -0.0933, 0.09, 1.2054, -0.0648, 0.09, 1.2054, -0.0648, 0.09, 1.2054, -0.0648, -1.09, 1.2054, -0.0933, -1.09, 1.0547, 0.0212, -1.09, 1.0547, 0.0212, 0.09, 1.0547, 0.0497, 0.09, 1.0547, 0.0497, 0.09, 1.0547, 0.0497, -1.09, 1.0547, 0.0212, -1.09, 1.1752, -0.1331, -1.09, 0, 0.76, -1.09, 0, 0.76, -1, 0, 0.76, -1, 0, 0.76, 0.09, 1.1752, -0.1331, -1.09, 0, 0.76, 0.09, 1.1752, -0.1331, 0.09, 1.1752, -0.1331, -1.09, 0.452, 0.4793, -0.3617, 0.452, 0.4793, 0.09, 0.452, 0.5078, 0.09, 0.452, 0.5078, 0.09, 0.452, 0.5078, -0.3617, 0.452, 0.4793, -0.3617, 0.7534, 0.2502, -1.09, 0.7534, 0.2502, 0.09, 0.7534, 0.2788, 0.09, 0.7534, 0.2788, 0.09, 0.7534, 0.2788, -0.3617, 0.7534, 0.2502, -1.09, 0.7534, 0.2788, -0.3617, 0.7534, 0.2788, -0.6383, 0.7534, 0.2502, -1.09, 0.7534, 0.2788, -0.6383, 0.7534, 0.2788, -1.09, 0.7534, 0.2502, -1.09, 0.6027, 0.3647, -0.6383, 0.6027, 0.3933, -0.6383, 0.6027, 0.3933, -1.09, 0.6027, 0.3933, -1.09, 0.6027, 0.3647, -1.09, 0.6027, 0.3647, -0.6383, 0.6027, 0.3647, -0.3617, 0.6027, 0.3647, 0.09, 0.6027, 0.3933, 0.09, 0.6027, 0.3933, 0.09, 0.6027, 0.3933, -0.3617, 0.6027, 0.3647, -0.3617, 0.452, 0.4793, -1.09, 0.452, 0.4793, -0.6383, 0.452, 0.5078, -0.6383, 0.452, 0.5078, -0.6383, 0.452, 0.5078, -1.09, 0.452, 0.4793, -1.09, 1.2054, -0.0648, 0.09, 1.0547, 0.0212, 0.09, 1.0547, 0.0212, -1.09, 1.0547, 0.0212, -1.09, 1.2054, -0.0648, -1.09, 1.2054, -0.0648, 0.09, 0.3014, 0.6223, 0.09, 0.1507, 0.7083, 0.09, 0.1507, 0.7083, -1.09, 0.1507, 0.7083, -1.09, 0.3014, 0.6223, -1.09, 0.3014, 0.6223, 0.09, 1.0547, 0.0497, 0.09, 0.9041, 0.1357, 0.09, 0.9041, 0.1357, -1.09, 0.9041, 0.1357, -1.09, 1.0547, 0.0497, -1.09, 1.0547, 0.0497, 0.09, 0.452, 0.5078, 0.09, 0.3014, 0.5938, 0.09, 0.3014, 0.5938, -1.09, 0.3014, 0.5938, -1.09, 0.452, 0.5078, -1.09, 0.452, 0.5078, 0.09, 0.452, 0.5078, -1.09, 0.452, 0.5078, -0.3617, 0.452, 0.5078, 0.09, 0.452, 0.5078, -1.09, 0.452, 0.5078, -0.6383, 0.452, 0.5078, -0.3617, 0.9041, 0.1642, 0.09, 0.7534, 0.2502, 0.09, 0.7534, 0.2502, -1.09, 0.7534, 0.2502, -1.09, 0.9041, 0.1642, -1.09, 0.9041, 0.1642, 0.09, 0.1507, 0.7368, 0.09, 0, 0.8228, 0.09, 0, 0.8228, -1.09, 0, 0.8228, -1.09, 0.1507, 0.7368, -1.09, 0.1507, 0.7368, 0.09, 0.6027, 0.3933, 0.09, 0.452, 0.4793, 0.09, 0.452, 0.4793, -0.3617, 0.452, 0.4793, -0.3617, 0.6027, 0.3933, -0.3617, 0.6027, 0.3933, 0.09, 0.6027, 0.3933, -0.6383, 0.452, 0.4793, -0.6383, 0.452, 0.4793, -1.09, 0.452, 0.4793, -1.09, 0.6027, 0.3933, -1.09, 0.6027, 0.3933, -0.6383, 0.7534, 0.2788, -0.6383, 0.6027, 0.3647, -0.6383, 0.6027, 0.3647, -1.09, 0.6027, 0.3647, -1.09, 0.7534, 0.2788, -1.09, 0.7534, 0.2788, -0.6383, 0.7534, 0.2788, 0.09, 0.6027, 0.3647, 0.09, 0.6027, 0.3647, -0.3617, 0.6027, 0.3647, -0.3617, 0.7534, 0.2788, -0.3617, 0.7534, 0.2788, 0.09, 0.6027, 0.3647, -0.6383, 0.7534, 0.2788, -0.6383, 0.7534, 0.5993, -0.6383, 0.7534, 0.5993, -0.6383, 0.6027, 0.3933, -0.6383, 0.6027, 0.3647, -0.6383, 0.7534, 0.5993, -0.6383, 0.452, 0.4793, -0.6383, 0.6027, 0.3933, -0.6383, 0.7534, 0.5993, -0.6383, 0.452, 0.5078, -0.6383, 0.452, 0.4793, -0.6383, 0.7534, 0.5993, -0.6383, 0.452, 0.5993, -0.6383, 0.452, 0.5078, -0.6383, 0.7534, 0.5993, -0.3617, 0.7534, 0.2788, -0.3617, 0.6027, 0.3647, -0.3617, 0.6027, 0.3647, -0.3617, 0.6027, 0.3933, -0.3617, 0.7534, 0.5993, -0.3617, 0.6027, 0.3933, -0.3617, 0.452, 0.4793, -0.3617, 0.7534, 0.5993, -0.3617, 0.452, 0.4793, -0.3617, 0.452, 0.5078, -0.3617, 0.7534, 0.5993, -0.3617, 0.452, 0.5078, -0.3617, 0.452, 0.5993, -0.3617, 0.7534, 0.5993, -0.3617, 0.7534, 0.2788, -0.6383, 0.7534, 0.2788, -0.3617, 0.7534, 0.5993, -0.3617, 0.7534, 0.5993, -0.3617, 0.7534, 0.5993, -0.6383, 0.7534, 0.2788, -0.6383, 0.452, 0.5993, -0.6383, 0.452, 0.5993, -0.3617, 0.452, 0.5078, -0.3617, 0.452, 0.5078, -0.3617, 0.452, 0.5078, -0.6383, 0.452, 0.5993, -0.6383, 0.4168, 0.5993, -0.6735, 0.4168, 0.5993, -0.3265, 0.452, 0.5993, -0.6383, 0.452, 0.5993, -0.6383, 0.7886, 0.5993, -0.6735, 0.4168, 0.5993, -0.6735, 0.452, 0.5993, -0.6383, 0.7534, 0.5993, -0.6383, 0.7886, 0.5993, -0.6735, 0.7534, 0.5993, -0.6383, 0.7534, 0.5993, -0.3617, 0.7886, 0.5993, -0.6735, 0.452, 0.5993, -0.3617, 0.452, 0.5993, -0.6383, 0.4168, 0.5993, -0.3265, 0.4168, 0.5993, -0.3265, 0.7886, 0.5993, -0.3265, 0.452, 0.5993, -0.3617, 0.7886, 0.5993, -0.3265, 0.7534, 0.5993, -0.3617, 0.452, 0.5993, -0.3617, 0.7886, 0.5993, -0.3265, 0.7886, 0.5993, -0.6735, 0.7534, 0.5993, -0.3617, 0.4168, 0.7393, -0.3265, 0.4168, 0.7393, -0.6735, 0.452, 0.7393, -0.3617, 0.452, 0.7393, -0.3617, 0.7886, 0.7393, -0.3265, 0.4168, 0.7393, -0.3265, 0.452, 0.7393, -0.3617, 0.7534, 0.7393, -0.3617, 0.7886, 0.7393, -0.3265, 0.7534, 0.7393, -0.3617, 0.7534, 0.7393, -0.6383, 0.7886, 0.7393, -0.3265, 0.452, 0.7393, -0.6383, 0.452, 0.7393, -0.3617, 0.4168, 0.7393, -0.6735, 0.4168, 0.7393, -0.6735, 0.7886, 0.7393, -0.6735, 0.452, 0.7393, -0.6383, 0.7886, 0.7393, -0.6735, 0.7534, 0.7393, -0.6383, 0.452, 0.7393, -0.6383, 0.7886, 0.7393, -0.6735, 0.7886, 0.7393, -0.3265, 0.7534, 0.7393, -0.6383, 0.4168, 0.7393, -0.6735, 0.4168, 0.7393, -0.3265, 0.4168, 0.5993, -0.3265, 0.4168, 0.5993, -0.3265, 0.4168, 0.5993, -0.6735, 0.4168, 0.7393, -0.6735, 0.7886, 0.7393, -0.3265, 0.7886, 0.5993, -0.3265, 0.4168, 0.5993, -0.3265, 0.4168, 0.5993, -0.3265, 0.4168, 0.7393, -0.3265, 0.7886, 0.7393, -0.3265, 0.7886, 0.5993, -0.6735, 0.7886, 0.5993, -0.3265, 0.7886, 0.7393, -0.3265, 0.7886, 0.7393, -0.3265, 0.7886, 0.7393, -0.6735, 0.7886, 0.5993, -0.6735, 0.4168, 0.7393, -0.6735, 0.4168, 0.5993, -0.6735, 0.7886, 0.5993, -0.6735, 0.7886, 0.5993, -0.6735, 0.7886, 0.7393, -0.6735, 0.4168, 0.7393, -0.6735, 0.7534, 0.7393, -0.6383, 0.7534, 0.6793, -0.6383, 0.452, 0.6793, -0.6383, 0.452, 0.6793, -0.6383, 0.452, 0.7393, -0.6383, 0.7534, 0.7393, -0.6383, 0.452, 0.5993, -0.6383, 0.452, 0.6793, -0.6383, 0.7534, 0.6793, -0.6383, 0.7534, 0.6793, -0.6383, 0.7534, 0.5993, -0.6383, 0.452, 0.5993, -0.6383, 0.7534, 0.7393, -0.6383, 0.7534, 0.7393, -0.3617, 0.7534, 0.6793, -0.3617, 0.7534, 0.6793, -0.3617, 0.7534, 0.6793, -0.6383, 0.7534, 0.7393, -0.6383, 0.7534, 0.6793, -0.6383, 0.7534, 0.6793, -0.3617, 0.7534, 0.5993, -0.3617, 0.7534, 0.5993, -0.3617, 0.7534, 0.5993, -0.6383, 0.7534, 0.6793, -0.6383, 0.452, 0.7393, -0.3617, 0.452, 0.6793, -0.3617, 0.7534, 0.6793, -0.3617, 0.7534, 0.6793, -0.3617, 0.7534, 0.7393, -0.3617, 0.452, 0.7393, -0.3617, 0.7534, 0.5993, -0.3617, 0.7534, 0.6793, -0.3617, 0.452, 0.6793, -0.3617, 0.452, 0.6793, -0.3617, 0.452, 0.5993, -0.3617, 0.7534, 0.5993, -0.3617, 0.452, 0.6793, -0.6383, 0.452, 0.6793, -0.3617, 0.452, 0.7393, -0.3617, 0.452, 0.7393, -0.3617, 0.452, 0.7393, -0.6383, 0.452, 0.6793, -0.6383, 0.452, 0.6793, -0.3617, 0.452, 0.6793, -0.6383, 0.452, 0.5993, -0.6383, 0.452, 0.5993, -0.6383, 0.452, 0.5993, -0.3617, 0.452, 0.6793, -0.3617, 0.452, 0.6793, -0.3617, 0.452, 0.6793, -0.6383, 0.486, 0.6793, -0.3957, 0.486, 0.6793, -0.3957, 0.7534, 0.6793, -0.3617, 0.452, 0.6793, -0.3617, 0.486, 0.6793, -0.3957, 0.7194, 0.6793, -0.3957, 0.7534, 0.6793, -0.3617, 0.7194, 0.6793, -0.3957, 0.7194, 0.6793, -0.6043, 0.7534, 0.6793, -0.3617, 0.486, 0.6793, -0.6043, 0.486, 0.6793, -0.3957, 0.452, 0.6793, -0.6383, 0.452, 0.6793, -0.6383, 0.7534, 0.6793, -0.6383, 0.486, 0.6793, -0.6043, 0.7534, 0.6793, -0.6383, 0.7194, 0.6793, -0.6043, 0.486, 0.6793, -0.6043, 0.7534, 0.6793, -0.6383, 0.7534, 0.6793, -0.3617, 0.7194, 0.6793, -0.6043, 0.7194, 0.5593, -0.3957, 0.486, 0.5593, -0.3957, 0.486, 0.5593, -0.6043, 0.486, 0.5593, -0.6043, 0.7194, 0.5593, -0.6043, 0.7194, 0.5593, -0.3957, 0.7194, 0.6793, -0.6043, 0.7194, 0.6793, -0.3957, 0.7194, 0.5593, -0.3957, 0.7194, 0.5593, -0.3957, 0.7194, 0.5593, -0.6043, 0.7194, 0.6793, -0.6043, 0.7194, 0.6793, -0.6043, 0.7194, 0.5593, -0.6043, 0.486, 0.5593, -0.6043, 0.486, 0.5593, -0.6043, 0.486, 0.6793, -0.6043, 0.7194, 0.6793, -0.6043, 0.486, 0.5593, -0.6043, 0.486, 0.5593, -0.3957, 0.486, 0.6793, -0.3957, 0.486, 0.6793, -0.3957, 0.486, 0.6793, -0.6043, 0.486, 0.5593, -0.6043, 0.486, 0.6793, -0.3957, 0.486, 0.5593, -0.3957, 0.7194, 0.5593, -0.3957, 0.7194, 0.5593, -0.3957, 0.7194, 0.6793, -0.3957, 0.486, 0.6793, -0.3957 )

[node name="CabinRoofChimney" index="0" instance=ExtResource( 1 )]

[node name="cabinRoofChimneyClone" parent="." index="0"]
transform = Transform( 1, 0, 0, 0, 1, 0, 0, 0, 1, -0.5, 0, 0.5 )

[node name="CollisionShape" type="CollisionShape" parent="." index="1"]
transform = Transform( 1, 0, 0, 0, 1, 0, 0, 0, 1, -0.5, 0, 0.5 )
shape = SubResource( 1 )
