# Made using Asset Forge (www.assetforge.io) version 1.3 

newmtl blade (Instance)
Ka 0.000000 0.000000 0.000000 
Kd 0.8745098 0.9254902 0.9490196 
Ks 0.330000 0.330000 0.330000 

newmtl hilt (Instance) (Instance)
Ka 0.000000 0.000000 0.000000 
Kd 1 0.6825836 0.05882353 
Ks 0.330000 0.330000 0.330000 

newmtl handle (Instance) (Instance)
Ka 0.000000 0.000000 0.000000 
Kd 0.8470588 0.6196079 0.3921569 
Ks 0.330000 0.330000 0.330000 

