[gd_scene load_steps=5 format=2]

[ext_resource path="res://assets/kenney_holiday_pack/trainGrey.material" type="Material" id=1]
[ext_resource path="res://assets/kenney_holiday_pack/_defaultMat.material" type="Material" id=2]

[sub_resource type="ArrayMesh" id=1]
resource_name = "lightpostClone"
surfaces/0 = {
"aabb": AABB( -0.116819, 0, -0.101168, 0.233639, 1.28192, 0.202337 ),
"array_data": PoolByteArray( 147, 111, 92, 61, 203, 221, 105, 62, 249, 15, 41, 169, 102, 46, 58, 0, 63, 0, 147, 127, 60, 60, 172, 198, 147, 111, 220, 60, 203, 221, 105, 62, 45, 231, 62, 61, 102, 46, 58, 0, 63, 0, 147, 127, 60, 188, 172, 198, 111, 210, 101, 60, 244, 156, 145, 62, 29, 8, 199, 60, 102, 46, 58, 0, 63, 0, 147, 127, 107, 184, 134, 200, 111, 210, 101, 60, 244, 156, 145, 62, 29, 8, 199, 60, 102, 46, 58, 0, 63, 0, 147, 127, 107, 184, 134, 200, 111, 210, 229, 60, 244, 156, 145, 62, 191, 14, 156, 168, 102, 46, 58, 0, 63, 0, 147, 127, 107, 56, 134, 200, 147, 111, 92, 61, 203, 221, 105, 62, 249, 15, 41, 169, 102, 46, 58, 0, 63, 0, 147, 127, 60, 60, 172, 198, 147, 111, 92, 61, 203, 221, 105, 62, 249, 15, 41, 169, 102, 46, 198, 0, 193, 0, 147, 127, 60, 188, 172, 198, 111, 210, 229, 60, 244, 156, 145, 62, 191, 14, 156, 168, 102, 46, 198, 0, 193, 0, 147, 127, 107, 184, 134, 200, 111, 210, 101, 60, 244, 156, 145, 62, 29, 8, 199, 188, 102, 46, 198, 0, 193, 0, 147, 127, 107, 56, 134, 200, 111, 210, 101, 60, 244, 156, 145, 62, 29, 8, 199, 188, 102, 46, 198, 0, 193, 0, 147, 127, 107, 56, 134, 200, 147, 111, 220, 60, 203, 221, 105, 62, 45, 231, 62, 189, 102, 46, 198, 0, 193, 0, 147, 127, 60, 60, 172, 198, 147, 111, 92, 61, 203, 221, 105, 62, 249, 15, 41, 169, 102, 46, 198, 0, 193, 0, 147, 127, 60, 188, 172, 198, 111, 210, 101, 188, 244, 156, 145, 62, 29, 8, 199, 60, 154, 46, 58, 0, 63, 0, 109, 127, 107, 56, 134, 200, 147, 111, 220, 188, 203, 221, 105, 62, 45, 231, 62, 61, 154, 46, 58, 0, 63, 0, 109, 127, 60, 60, 172, 198, 147, 111, 92, 189, 203, 221, 105, 62, 132, 13, 15, 41, 154, 46, 58, 0, 63, 0, 109, 127, 60, 188, 172, 198, 147, 111, 92, 189, 203, 221, 105, 62, 132, 13, 15, 41, 154, 46, 58, 0, 63, 0, 109, 127, 60, 188, 172, 198, 111, 210, 229, 188, 244, 156, 145, 62, 169, 19, 80, 40, 154, 46, 58, 0, 63, 0, 109, 127, 107, 184, 134, 200, 111, 210, 101, 188, 244, 156, 145, 62, 29, 8, 199, 60, 154, 46, 58, 0, 63, 0, 109, 127, 107, 56, 134, 200, 156, 160, 144, 189, 47, 135, 43, 61, 156, 160, 144, 61, 0, 127, 0, 0, 127, 0, 0, 127, 143, 193, 143, 67, 12, 205, 74, 189, 47, 135, 43, 61, 132, 13, 15, 41, 0, 127, 0, 0, 127, 0, 0, 127, 204, 191, 0, 60, 12, 205, 202, 188, 47, 135, 43, 61, 124, 161, 47, 61, 0, 127, 0, 0, 127, 0, 0, 127, 204, 187, 96, 65, 12, 205, 202, 188, 47, 135, 43, 61, 124, 161, 47, 61, 0, 127, 0, 0, 127, 0, 0, 127, 204, 187, 96, 65, 156, 160, 144, 61, 47, 135, 43, 61, 156, 160, 144, 61, 0, 127, 0, 0, 127, 0, 0, 127, 143, 65, 143, 67, 156, 160, 144, 189, 47, 135, 43, 61, 156, 160, 144, 61, 0, 127, 0, 0, 127, 0, 0, 127, 143, 193, 143, 67, 12, 205, 202, 188, 47, 135, 43, 61, 124, 161, 47, 61, 0, 127, 0, 0, 127, 0, 0, 127, 204, 187, 96, 65, 12, 147, 201, 168, 47, 135, 43, 61, 124, 161, 47, 61, 0, 127, 0, 0, 127, 0, 0, 127, 0, 0, 96, 65, 156, 160, 144, 61, 47, 135, 43, 61, 156, 160, 144, 61, 0, 127, 0, 0, 127, 0, 0, 127, 143, 65, 143, 67, 12, 147, 201, 168, 47, 135, 43, 61, 124, 161, 47, 61, 0, 127, 0, 0, 127, 0, 0, 127, 0, 0, 96, 65, 12, 205, 202, 60, 47, 135, 43, 61, 124, 161, 47, 61, 0, 127, 0, 0, 127, 0, 0, 127, 204, 59, 96, 65, 156, 160, 144, 61, 47, 135, 43, 61, 156, 160, 144, 61, 0, 127, 0, 0, 127, 0, 0, 127, 143, 65, 143, 67, 12, 205, 202, 60, 47, 135, 43, 61, 124, 161, 47, 61, 0, 127, 0, 0, 127, 0, 0, 127, 204, 59, 96, 65, 12, 205, 74, 61, 47, 135, 43, 61, 52, 17, 54, 169, 0, 127, 0, 0, 127, 0, 0, 127, 204, 63, 0, 60, 156, 160, 144, 61, 47, 135, 43, 61, 156, 160, 144, 61, 0, 127, 0, 0, 127, 0, 0, 127, 143, 65, 143, 67, 12, 205, 74, 61, 47, 135, 43, 61, 52, 17, 54, 169, 0, 127, 0, 0, 127, 0, 0, 127, 204, 63, 0, 60, 156, 160, 144, 61, 47, 135, 43, 61, 156, 160, 144, 189, 0, 127, 0, 0, 127, 0, 0, 127, 143, 65, 30, 191, 156, 160, 144, 61, 47, 135, 43, 61, 156, 160, 144, 61, 0, 127, 0, 0, 127, 0, 0, 127, 143, 65, 143, 67, 12, 205, 74, 189, 47, 135, 43, 61, 132, 13, 15, 41, 0, 127, 0, 0, 127, 0, 0, 127, 204, 191, 0, 60, 156, 160, 144, 189, 47, 135, 43, 61, 156, 160, 144, 61, 0, 127, 0, 0, 127, 0, 0, 127, 143, 193, 143, 67, 156, 160, 144, 189, 47, 135, 43, 61, 156, 160, 144, 189, 0, 127, 0, 0, 127, 0, 0, 127, 143, 193, 30, 191, 156, 160, 144, 189, 47, 135, 43, 61, 156, 160, 144, 189, 0, 127, 0, 0, 127, 0, 0, 127, 143, 193, 30, 191, 156, 160, 144, 61, 47, 135, 43, 61, 156, 160, 144, 189, 0, 127, 0, 0, 127, 0, 0, 127, 143, 65, 30, 191, 12, 205, 202, 188, 47, 135, 43, 61, 124, 161, 47, 189, 0, 127, 0, 0, 127, 0, 0, 127, 204, 187, 129, 185, 12, 205, 202, 188, 47, 135, 43, 61, 124, 161, 47, 189, 0, 127, 0, 0, 127, 0, 0, 127, 204, 187, 129, 185, 12, 205, 74, 189, 47, 135, 43, 61, 132, 13, 15, 41, 0, 127, 0, 0, 127, 0, 0, 127, 204, 191, 0, 60, 156, 160, 144, 189, 47, 135, 43, 61, 156, 160, 144, 189, 0, 127, 0, 0, 127, 0, 0, 127, 143, 193, 30, 191, 156, 160, 144, 61, 47, 135, 43, 61, 156, 160, 144, 189, 0, 127, 0, 0, 127, 0, 0, 127, 143, 65, 30, 191, 169, 19, 208, 38, 47, 135, 43, 61, 124, 161, 47, 189, 0, 127, 0, 0, 127, 0, 0, 127, 0, 0, 129, 185, 12, 205, 202, 188, 47, 135, 43, 61, 124, 161, 47, 189, 0, 127, 0, 0, 127, 0, 0, 127, 204, 187, 129, 185, 156, 160, 144, 61, 47, 135, 43, 61, 156, 160, 144, 189, 0, 127, 0, 0, 127, 0, 0, 127, 143, 65, 30, 191, 12, 205, 202, 60, 47, 135, 43, 61, 124, 161, 47, 189, 0, 127, 0, 0, 127, 0, 0, 127, 204, 59, 129, 185, 169, 19, 208, 38, 47, 135, 43, 61, 124, 161, 47, 189, 0, 127, 0, 0, 127, 0, 0, 127, 0, 0, 129, 185, 156, 160, 144, 61, 47, 135, 43, 61, 156, 160, 144, 189, 0, 127, 0, 0, 127, 0, 0, 127, 143, 65, 30, 191, 12, 205, 74, 61, 47, 135, 43, 61, 52, 17, 54, 169, 0, 127, 0, 0, 127, 0, 0, 127, 204, 63, 0, 60, 12, 205, 202, 60, 47, 135, 43, 61, 124, 161, 47, 189, 0, 127, 0, 0, 127, 0, 0, 127, 204, 59, 129, 185, 111, 210, 229, 188, 244, 156, 145, 62, 169, 19, 80, 40, 154, 46, 198, 0, 193, 0, 109, 127, 107, 56, 134, 200, 147, 111, 92, 189, 203, 221, 105, 62, 132, 13, 15, 41, 154, 46, 198, 0, 193, 0, 109, 127, 60, 60, 172, 198, 147, 111, 220, 188, 203, 221, 105, 62, 45, 231, 62, 189, 154, 46, 198, 0, 193, 0, 109, 127, 60, 188, 172, 198, 147, 111, 220, 188, 203, 221, 105, 62, 45, 231, 62, 189, 154, 46, 198, 0, 193, 0, 109, 127, 60, 188, 172, 198, 111, 210, 101, 188, 244, 156, 145, 62, 29, 8, 199, 188, 154, 46, 198, 0, 193, 0, 109, 127, 107, 184, 134, 200, 111, 210, 229, 188, 244, 156, 145, 62, 169, 19, 80, 40, 154, 46, 198, 0, 193, 0, 109, 127, 107, 56, 134, 200, 111, 210, 101, 188, 244, 156, 145, 62, 29, 8, 199, 188, 0, 46, 139, 0, 129, 0, 0, 127, 107, 56, 134, 200, 147, 111, 220, 188, 203, 221, 105, 62, 45, 231, 62, 189, 0, 46, 139, 0, 129, 0, 0, 127, 60, 60, 172, 198, 169, 19, 208, 166, 203, 221, 105, 62, 45, 231, 62, 189, 0, 46, 139, 0, 129, 0, 0, 127, 0, 0, 172, 198, 169, 19, 208, 166, 203, 221, 105, 62, 45, 231, 62, 189, 0, 46, 139, 0, 129, 0, 0, 127, 0, 0, 172, 198, 147, 111, 220, 60, 203, 221, 105, 62, 45, 231, 62, 189, 0, 46, 139, 0, 129, 0, 0, 127, 60, 188, 172, 198, 111, 210, 101, 188, 244, 156, 145, 62, 29, 8, 199, 188, 0, 46, 139, 0, 129, 0, 0, 127, 107, 56, 134, 200, 147, 111, 220, 60, 203, 221, 105, 62, 45, 231, 62, 189, 0, 46, 139, 0, 129, 0, 0, 127, 60, 188, 172, 198, 111, 210, 101, 60, 244, 156, 145, 62, 29, 8, 199, 188, 0, 46, 139, 0, 129, 0, 0, 127, 107, 184, 134, 200, 111, 210, 101, 188, 244, 156, 145, 62, 29, 8, 199, 188, 0, 46, 139, 0, 129, 0, 0, 127, 107, 56, 134, 200, 111, 210, 101, 60, 244, 156, 145, 62, 29, 8, 199, 60, 0, 46, 117, 0, 127, 0, 0, 127, 107, 56, 134, 200, 147, 111, 220, 60, 203, 221, 105, 62, 45, 231, 62, 61, 0, 46, 117, 0, 127, 0, 0, 127, 60, 60, 172, 198, 89, 23, 247, 168, 203, 221, 105, 62, 45, 231, 62, 61, 0, 46, 117, 0, 127, 0, 0, 127, 0, 0, 172, 198, 89, 23, 247, 168, 203, 221, 105, 62, 45, 231, 62, 61, 0, 46, 117, 0, 127, 0, 0, 127, 0, 0, 172, 198, 147, 111, 220, 188, 203, 221, 105, 62, 45, 231, 62, 61, 0, 46, 117, 0, 127, 0, 0, 127, 60, 188, 172, 198, 111, 210, 101, 60, 244, 156, 145, 62, 29, 8, 199, 60, 0, 46, 117, 0, 127, 0, 0, 127, 107, 56, 134, 200, 147, 111, 220, 188, 203, 221, 105, 62, 45, 231, 62, 61, 0, 46, 117, 0, 127, 0, 0, 127, 60, 188, 172, 198, 111, 210, 101, 188, 244, 156, 145, 62, 29, 8, 199, 60, 0, 46, 117, 0, 127, 0, 0, 127, 107, 184, 134, 200, 111, 210, 101, 60, 244, 156, 145, 62, 29, 8, 199, 60, 0, 46, 117, 0, 127, 0, 0, 127, 107, 56, 134, 200, 174, 31, 145, 188, 244, 156, 145, 62, 152, 92, 251, 188, 0, 129, 0, 0, 129, 0, 0, 127, 148, 57, 168, 178, 174, 31, 17, 189, 244, 156, 145, 62, 169, 19, 80, 40, 0, 129, 0, 0, 129, 0, 0, 127, 148, 61, 0, 60, 111, 210, 229, 188, 244, 156, 145, 62, 169, 19, 80, 40, 0, 129, 0, 0, 129, 0, 0, 127, 107, 60, 0, 60, 111, 210, 229, 188, 244, 156, 145, 62, 169, 19, 80, 40, 0, 129, 0, 0, 129, 0, 0, 127, 107, 60, 0, 60, 111, 210, 101, 188, 244, 156, 145, 62, 29, 8, 199, 188, 0, 129, 0, 0, 129, 0, 0, 127, 107, 56, 144, 41, 174, 31, 145, 188, 244, 156, 145, 62, 152, 92, 251, 188, 0, 129, 0, 0, 129, 0, 0, 127, 148, 57, 168, 178, 111, 210, 101, 188, 244, 156, 145, 62, 29, 8, 199, 188, 0, 129, 0, 0, 129, 0, 0, 127, 107, 56, 144, 41, 174, 31, 145, 60, 244, 156, 145, 62, 152, 92, 251, 188, 0, 129, 0, 0, 129, 0, 0, 127, 148, 185, 168, 178, 174, 31, 145, 188, 244, 156, 145, 62, 152, 92, 251, 188, 0, 129, 0, 0, 129, 0, 0, 127, 148, 57, 168, 178, 111, 210, 101, 188, 244, 156, 145, 62, 29, 8, 199, 188, 0, 129, 0, 0, 129, 0, 0, 127, 107, 56, 144, 41, 111, 210, 101, 60, 244, 156, 145, 62, 29, 8, 199, 188, 0, 129, 0, 0, 129, 0, 0, 127, 107, 184, 144, 41, 174, 31, 145, 60, 244, 156, 145, 62, 152, 92, 251, 188, 0, 129, 0, 0, 129, 0, 0, 127, 148, 185, 168, 178, 111, 210, 101, 60, 244, 156, 145, 62, 29, 8, 199, 188, 0, 129, 0, 0, 129, 0, 0, 127, 107, 184, 144, 41, 111, 210, 229, 60, 244, 156, 145, 62, 191, 14, 156, 168, 0, 129, 0, 0, 129, 0, 0, 127, 107, 188, 0, 60, 174, 31, 145, 60, 244, 156, 145, 62, 152, 92, 251, 188, 0, 129, 0, 0, 129, 0, 0, 127, 148, 185, 168, 178, 111, 210, 229, 60, 244, 156, 145, 62, 191, 14, 156, 168, 0, 129, 0, 0, 129, 0, 0, 127, 107, 188, 0, 60, 174, 31, 17, 61, 244, 156, 145, 62, 132, 13, 15, 169, 0, 129, 0, 0, 129, 0, 0, 127, 148, 189, 0, 60, 174, 31, 145, 60, 244, 156, 145, 62, 152, 92, 251, 188, 0, 129, 0, 0, 129, 0, 0, 127, 148, 185, 168, 178, 111, 210, 229, 188, 244, 156, 145, 62, 169, 19, 80, 40, 0, 129, 0, 0, 129, 0, 0, 127, 107, 60, 0, 60, 174, 31, 17, 189, 244, 156, 145, 62, 169, 19, 80, 40, 0, 129, 0, 0, 129, 0, 0, 127, 148, 61, 0, 60, 174, 31, 145, 188, 244, 156, 145, 62, 152, 92, 251, 60, 0, 129, 0, 0, 129, 0, 0, 127, 148, 57, 106, 64, 174, 31, 145, 188, 244, 156, 145, 62, 152, 92, 251, 60, 0, 129, 0, 0, 129, 0, 0, 127, 148, 57, 106, 64, 111, 210, 101, 188, 244, 156, 145, 62, 29, 8, 199, 60, 0, 129, 0, 0, 129, 0, 0, 127, 107, 56, 211, 63, 111, 210, 229, 188, 244, 156, 145, 62, 169, 19, 80, 40, 0, 129, 0, 0, 129, 0, 0, 127, 107, 60, 0, 60, 174, 31, 145, 188, 244, 156, 145, 62, 152, 92, 251, 60, 0, 129, 0, 0, 129, 0, 0, 127, 148, 57, 106, 64, 174, 31, 145, 60, 244, 156, 145, 62, 152, 92, 251, 60, 0, 129, 0, 0, 129, 0, 0, 127, 148, 185, 106, 64, 111, 210, 101, 188, 244, 156, 145, 62, 29, 8, 199, 60, 0, 129, 0, 0, 129, 0, 0, 127, 107, 56, 211, 63, 174, 31, 145, 60, 244, 156, 145, 62, 152, 92, 251, 60, 0, 129, 0, 0, 129, 0, 0, 127, 148, 185, 106, 64, 174, 31, 17, 61, 244, 156, 145, 62, 132, 13, 15, 169, 0, 129, 0, 0, 129, 0, 0, 127, 148, 189, 0, 60, 111, 210, 229, 60, 244, 156, 145, 62, 191, 14, 156, 168, 0, 129, 0, 0, 129, 0, 0, 127, 107, 188, 0, 60, 174, 31, 145, 60, 244, 156, 145, 62, 152, 92, 251, 60, 0, 129, 0, 0, 129, 0, 0, 127, 148, 185, 106, 64, 111, 210, 101, 60, 244, 156, 145, 62, 29, 8, 199, 60, 0, 129, 0, 0, 129, 0, 0, 127, 107, 184, 211, 63, 111, 210, 101, 188, 244, 156, 145, 62, 29, 8, 199, 60, 0, 129, 0, 0, 129, 0, 0, 127, 107, 56, 211, 63, 174, 31, 145, 60, 244, 156, 145, 62, 152, 92, 251, 60, 0, 129, 0, 0, 129, 0, 0, 127, 148, 185, 106, 64, 111, 210, 229, 60, 244, 156, 145, 62, 191, 14, 156, 168, 0, 129, 0, 0, 129, 0, 0, 127, 107, 188, 0, 60, 111, 210, 101, 60, 244, 156, 145, 62, 29, 8, 199, 60, 0, 129, 0, 0, 129, 0, 0, 127, 107, 184, 211, 63, 194, 130, 138, 189, 208, 78, 157, 63, 74, 12, 2, 41, 193, 103, 220, 0, 193, 0, 109, 127, 83, 61, 81, 206, 241, 62, 239, 189, 140, 104, 153, 63, 191, 14, 28, 42, 193, 103, 220, 0, 193, 0, 109, 127, 153, 64, 205, 205, 241, 62, 111, 189, 140, 104, 153, 63, 105, 49, 207, 189, 193, 103, 220, 0, 193, 0, 109, 127, 153, 192, 205, 205, 241, 62, 111, 189, 140, 104, 153, 63, 105, 49, 207, 189, 193, 103, 220, 0, 193, 0, 109, 127, 153, 192, 205, 205, 194, 130, 10, 189, 208, 78, 157, 63, 94, 232, 111, 189, 193, 103, 220, 0, 193, 0, 109, 127, 83, 189, 81, 206, 194, 130, 138, 189, 208, 78, 157, 63, 74, 12, 2, 41, 193, 103, 220, 0, 193, 0, 109, 127, 83, 61, 81, 206, 30, 216, 148, 188, 33, 62, 135, 63, 34, 231, 0, 189, 0, 0, 129, 0, 129, 0, 0, 127, 185, 57, 19, 209, 30, 216, 148, 188, 241, 151, 132, 63, 34, 231, 0, 189, 0, 0, 129, 0, 129, 0, 0, 127, 185, 57, 249, 208, 30, 216, 148, 60, 241, 151, 132, 63, 34, 231, 0, 189, 0, 0, 129, 0, 129, 0, 0, 127, 185, 185, 249, 208, 30, 216, 148, 60, 241, 151, 132, 63, 34, 231, 0, 189, 0, 0, 129, 0, 129, 0, 0, 127, 185, 185, 249, 208, 30, 216, 148, 60, 33, 62, 135, 63, 34, 231, 0, 189, 0, 0, 129, 0, 129, 0, 0, 127, 185, 185, 19, 209, 30, 216, 148, 188, 33, 62, 135, 63, 34, 231, 0, 189, 0, 0, 129, 0, 129, 0, 0, 127, 185, 57, 19, 209, 241, 62, 111, 61, 140, 104, 153, 63, 105, 49, 207, 61, 0, 103, 73, 0, 127, 0, 0, 127, 153, 64, 205, 205, 241, 62, 111, 189, 140, 104, 153, 63, 105, 49, 207, 61, 0, 103, 73, 0, 126, 0, 0, 127, 153, 192, 205, 205, 194, 130, 10, 189, 208, 78, 157, 63, 94, 232, 111, 61, 0, 103, 73, 0, 127, 0, 0, 127, 83, 189, 81, 206, 194, 130, 10, 189, 208, 78, 157, 63, 94, 232, 111, 61, 0, 103, 73, 0, 127, 0, 0, 127, 83, 189, 81, 206, 194, 130, 10, 61, 208, 78, 157, 63, 94, 232, 111, 61, 0, 103, 73, 0, 127, 0, 0, 127, 83, 61, 81, 206, 241, 62, 111, 61, 140, 104, 153, 63, 105, 49, 207, 61, 0, 103, 73, 0, 127, 0, 0, 127, 153, 64, 205, 205, 46, 68, 223, 188, 241, 151, 132, 63, 34, 231, 128, 188, 0, 129, 0, 0, 129, 0, 0, 127, 74, 60, 22, 54, 30, 216, 20, 189, 241, 151, 132, 63, 110, 18, 67, 41, 0, 129, 0, 0, 129, 0, 0, 127, 185, 61, 0, 60, 30, 216, 148, 188, 241, 151, 132, 63, 34, 231, 0, 61, 0, 129, 0, 0, 129, 0, 0, 127, 185, 57, 122, 64, 30, 216, 148, 188, 241, 151, 132, 63, 34, 231, 0, 61, 0, 129, 0, 0, 129, 0, 0, 127, 185, 57, 122, 64, 30, 216, 148, 188, 241, 151, 132, 63, 34, 231, 0, 189, 0, 129, 0, 0, 129, 0, 0, 127, 185, 57, 165, 179, 46, 68, 223, 188, 241, 151, 132, 63, 34, 231, 128, 188, 0, 129, 0, 0, 129, 0, 0, 127, 74, 60, 22, 54, 30, 216, 148, 188, 241, 151, 132, 63, 34, 231, 0, 61, 0, 129, 0, 0, 129, 0, 0, 127, 185, 57, 122, 64, 69, 140, 139, 188, 241, 151, 132, 63, 169, 19, 80, 39, 0, 129, 0, 0, 129, 0, 0, 127, 93, 57, 0, 60, 30, 216, 148, 188, 241, 151, 132, 63, 34, 231, 0, 189, 0, 129, 0, 0, 129, 0, 0, 127, 185, 57, 165, 179, 69, 140, 139, 188, 241, 151, 132, 63, 169, 19, 80, 39, 0, 129, 0, 0, 129, 0, 0, 127, 93, 57, 0, 60, 69, 140, 11, 188, 241, 151, 132, 63, 63, 180, 113, 188, 0, 129, 0, 0, 129, 0, 0, 127, 93, 53, 181, 54, 30, 216, 148, 188, 241, 151, 132, 63, 34, 231, 0, 189, 0, 129, 0, 0, 129, 0, 0, 127, 185, 57, 165, 179, 69, 140, 11, 188, 241, 151, 132, 63, 63, 180, 113, 188, 0, 129, 0, 0, 129, 0, 0, 127, 93, 53, 181, 54, 30, 216, 148, 60, 241, 151, 132, 63, 34, 231, 0, 189, 0, 129, 0, 0, 129, 0, 0, 127, 185, 185, 165, 179, 30, 216, 148, 188, 241, 151, 132, 63, 34, 231, 0, 189, 0, 129, 0, 0, 129, 0, 0, 127, 185, 57, 165, 179, 69, 140, 11, 188, 241, 151, 132, 63, 63, 180, 113, 188, 0, 129, 0, 0, 129, 0, 0, 127, 93, 53, 181, 54, 69, 140, 11, 60, 241, 151, 132, 63, 63, 180, 113, 188, 0, 129, 0, 0, 129, 0, 0, 127, 93, 181, 181, 54, 30, 216, 148, 60, 241, 151, 132, 63, 34, 231, 0, 189, 0, 129, 0, 0, 129, 0, 0, 127, 185, 185, 165, 179, 69, 140, 11, 60, 241, 151, 132, 63, 63, 180, 113, 188, 0, 129, 0, 0, 129, 0, 0, 127, 93, 181, 181, 54, 69, 140, 139, 60, 241, 151, 132, 63, 191, 14, 156, 168, 0, 129, 0, 0, 129, 0, 0, 127, 93, 185, 0, 60, 30, 216, 148, 60, 241, 151, 132, 63, 34, 231, 0, 189, 0, 129, 0, 0, 129, 0, 0, 127, 185, 185, 165, 179, 69, 140, 11, 188, 241, 151, 132, 63, 63, 180, 113, 60, 0, 129, 0, 0, 129, 0, 0, 127, 93, 53, 82, 62, 69, 140, 139, 188, 241, 151, 132, 63, 169, 19, 80, 39, 0, 129, 0, 0, 129, 0, 0, 127, 93, 57, 0, 60, 30, 216, 148, 188, 241, 151, 132, 63, 34, 231, 0, 61, 0, 129, 0, 0, 129, 0, 0, 127, 185, 57, 122, 64, 30, 216, 148, 188, 241, 151, 132, 63, 34, 231, 0, 61, 0, 129, 0, 0, 129, 0, 0, 127, 185, 57, 122, 64, 30, 216, 148, 60, 241, 151, 132, 63, 34, 231, 0, 61, 0, 129, 0, 0, 129, 0, 0, 127, 185, 185, 122, 64, 69, 140, 11, 188, 241, 151, 132, 63, 63, 180, 113, 60, 0, 129, 0, 0, 129, 0, 0, 127, 93, 53, 82, 62, 30, 216, 148, 60, 241, 151, 132, 63, 34, 231, 0, 61, 0, 129, 0, 0, 129, 0, 0, 127, 185, 185, 122, 64, 30, 216, 148, 60, 241, 151, 132, 63, 34, 231, 0, 189, 0, 129, 0, 0, 129, 0, 0, 127, 185, 185, 165, 179, 69, 140, 139, 60, 241, 151, 132, 63, 191, 14, 156, 168, 0, 129, 0, 0, 129, 0, 0, 127, 93, 185, 0, 60, 30, 216, 148, 60, 241, 151, 132, 63, 34, 231, 0, 61, 0, 129, 0, 0, 129, 0, 0, 127, 185, 185, 122, 64, 69, 140, 11, 60, 241, 151, 132, 63, 63, 180, 113, 60, 0, 129, 0, 0, 129, 0, 0, 127, 93, 181, 82, 62, 69, 140, 11, 188, 241, 151, 132, 63, 63, 180, 113, 60, 0, 129, 0, 0, 129, 0, 0, 127, 93, 53, 82, 62, 30, 216, 148, 60, 241, 151, 132, 63, 34, 231, 0, 61, 0, 129, 0, 0, 129, 0, 0, 127, 185, 185, 122, 64, 69, 140, 139, 60, 241, 151, 132, 63, 191, 14, 156, 168, 0, 129, 0, 0, 129, 0, 0, 127, 93, 185, 0, 60, 69, 140, 11, 60, 241, 151, 132, 63, 63, 180, 113, 60, 0, 129, 0, 0, 129, 0, 0, 127, 93, 181, 82, 62, 30, 216, 148, 60, 241, 151, 132, 63, 34, 231, 0, 61, 0, 129, 0, 0, 129, 0, 0, 127, 185, 185, 122, 64, 46, 68, 223, 60, 241, 151, 132, 63, 34, 231, 128, 60, 0, 129, 0, 0, 129, 0, 0, 127, 74, 188, 122, 62, 30, 216, 148, 60, 241, 151, 132, 63, 34, 231, 0, 189, 0, 129, 0, 0, 129, 0, 0, 127, 185, 185, 165, 179, 46, 68, 223, 60, 241, 151, 132, 63, 34, 231, 128, 60, 0, 129, 0, 0, 129, 0, 0, 127, 74, 188, 122, 62, 30, 216, 20, 61, 241, 151, 132, 63, 169, 19, 80, 169, 0, 129, 0, 0, 129, 0, 0, 127, 185, 189, 0, 60, 30, 216, 148, 60, 241, 151, 132, 63, 34, 231, 0, 189, 0, 129, 0, 0, 129, 0, 0, 127, 185, 185, 165, 179, 241, 62, 111, 189, 140, 104, 153, 63, 105, 49, 207, 189, 0, 129, 0, 0, 129, 0, 0, 127, 153, 64, 247, 193, 241, 62, 239, 189, 140, 104, 153, 63, 191, 14, 28, 42, 0, 129, 0, 0, 129, 0, 0, 127, 153, 68, 0, 60, 30, 216, 148, 189, 140, 104, 153, 63, 33, 142, 149, 41, 0, 129, 0, 0, 129, 0, 0, 127, 185, 65, 0, 60, 30, 216, 148, 189, 140, 104, 153, 63, 33, 142, 149, 41, 0, 129, 0, 0, 129, 0, 0, 127, 185, 65, 0, 60, 30, 216, 20, 189, 140, 104, 153, 63, 34, 231, 128, 189, 0, 129, 0, 0, 129, 0, 0, 127, 185, 61, 233, 189, 241, 62, 111, 189, 140, 104, 153, 63, 105, 49, 207, 189, 0, 129, 0, 0, 129, 0, 0, 127, 153, 64, 247, 193, 30, 216, 20, 189, 140, 104, 153, 63, 34, 231, 128, 189, 0, 129, 0, 0, 129, 0, 0, 127, 185, 61, 233, 189, 241, 62, 111, 61, 140, 104, 153, 63, 105, 49, 207, 189, 0, 129, 0, 0, 129, 0, 0, 127, 153, 192, 247, 193, 241, 62, 111, 189, 140, 104, 153, 63, 105, 49, 207, 189, 0, 129, 0, 0, 129, 0, 0, 127, 153, 64, 247, 193, 30, 216, 20, 189, 140, 104, 153, 63, 34, 231, 128, 189, 0, 129, 0, 0, 129, 0, 0, 127, 185, 61, 233, 189, 30, 216, 20, 61, 140, 104, 153, 63, 34, 231, 128, 189, 0, 129, 0, 0, 129, 0, 0, 127, 185, 189, 233, 189, 241, 62, 111, 61, 140, 104, 153, 63, 105, 49, 207, 189, 0, 129, 0, 0, 129, 0, 0, 127, 153, 192, 247, 193, 30, 216, 20, 61, 140, 104, 153, 63, 34, 231, 128, 189, 0, 129, 0, 0, 129, 0, 0, 127, 185, 189, 233, 189, 30, 216, 148, 61, 140, 104, 153, 63, 74, 12, 2, 170, 0, 129, 0, 0, 129, 0, 0, 127, 185, 193, 0, 60, 241, 62, 111, 61, 140, 104, 153, 63, 105, 49, 207, 189, 0, 129, 0, 0, 129, 0, 0, 127, 153, 192, 247, 193, 30, 216, 148, 61, 140, 104, 153, 63, 74, 12, 2, 170, 0, 129, 0, 0, 129, 0, 0, 127, 185, 193, 0, 60, 241, 62, 239, 61, 140, 104, 153, 63, 228, 20, 93, 170, 0, 129, 0, 0, 129, 0, 0, 127, 153, 196, 0, 60, 241, 62, 111, 61, 140, 104, 153, 63, 105, 49, 207, 189, 0, 129, 0, 0, 129, 0, 0, 127, 153, 192, 247, 193, 30, 216, 148, 189, 140, 104, 153, 63, 33, 142, 149, 41, 0, 129, 0, 0, 129, 0, 0, 127, 185, 65, 0, 60, 241, 62, 239, 189, 140, 104, 153, 63, 191, 14, 28, 42, 0, 129, 0, 0, 129, 0, 0, 127, 153, 68, 0, 60, 241, 62, 111, 189, 140, 104, 153, 63, 105, 49, 207, 61, 0, 129, 0, 0, 129, 0, 0, 127, 153, 64, 251, 68, 241, 62, 111, 189, 140, 104, 153, 63, 105, 49, 207, 61, 0, 129, 0, 0, 129, 0, 0, 127, 153, 64, 251, 68, 30, 216, 20, 189, 140, 104, 153, 63, 34, 231, 128, 61, 0, 129, 0, 0, 129, 0, 0, 127, 185, 61, 244, 66, 30, 216, 148, 189, 140, 104, 153, 63, 33, 142, 149, 41, 0, 129, 0, 0, 129, 0, 0, 127, 185, 65, 0, 60, 241, 62, 111, 189, 140, 104, 153, 63, 105, 49, 207, 61, 0, 129, 0, 0, 129, 0, 0, 127, 153, 64, 251, 68, 241, 62, 111, 61, 140, 104, 153, 63, 105, 49, 207, 61, 0, 129, 0, 0, 129, 0, 0, 127, 153, 192, 251, 68, 30, 216, 20, 189, 140, 104, 153, 63, 34, 231, 128, 61, 0, 129, 0, 0, 129, 0, 0, 127, 185, 61, 244, 66, 241, 62, 111, 61, 140, 104, 153, 63, 105, 49, 207, 61, 0, 129, 0, 0, 129, 0, 0, 127, 153, 192, 251, 68, 241, 62, 239, 61, 140, 104, 153, 63, 228, 20, 93, 170, 0, 129, 0, 0, 129, 0, 0, 127, 153, 196, 0, 60, 30, 216, 148, 61, 140, 104, 153, 63, 74, 12, 2, 170, 0, 129, 0, 0, 129, 0, 0, 127, 185, 193, 0, 60, 241, 62, 111, 61, 140, 104, 153, 63, 105, 49, 207, 61, 0, 129, 0, 0, 129, 0, 0, 127, 153, 192, 251, 68, 30, 216, 20, 61, 140, 104, 153, 63, 34, 231, 128, 61, 0, 129, 0, 0, 129, 0, 0, 127, 185, 189, 244, 66, 30, 216, 20, 189, 140, 104, 153, 63, 34, 231, 128, 61, 0, 129, 0, 0, 129, 0, 0, 127, 185, 61, 244, 66, 241, 62, 111, 61, 140, 104, 153, 63, 105, 49, 207, 61, 0, 129, 0, 0, 129, 0, 0, 127, 153, 192, 251, 68, 30, 216, 148, 61, 140, 104, 153, 63, 74, 12, 2, 170, 0, 129, 0, 0, 129, 0, 0, 127, 185, 193, 0, 60, 30, 216, 20, 61, 140, 104, 153, 63, 34, 231, 128, 61, 0, 129, 0, 0, 129, 0, 0, 127, 185, 189, 244, 66, 241, 62, 111, 61, 140, 104, 153, 63, 105, 49, 207, 61, 63, 103, 36, 0, 63, 0, 147, 127, 153, 192, 205, 205, 194, 130, 10, 61, 208, 78, 157, 63, 94, 232, 111, 61, 63, 103, 36, 0, 63, 0, 147, 127, 83, 189, 81, 206, 194, 130, 138, 61, 208, 78, 157, 63, 151, 144, 175, 169, 63, 103, 36, 0, 63, 0, 147, 127, 83, 61, 81, 206, 194, 130, 138, 61, 208, 78, 157, 63, 151, 144, 175, 169, 63, 103, 36, 0, 63, 0, 147, 127, 83, 61, 81, 206, 241, 62, 239, 61, 140, 104, 153, 63, 228, 20, 93, 170, 63, 103, 36, 0, 63, 0, 147, 127, 153, 64, 205, 205, 241, 62, 111, 61, 140, 104, 153, 63, 105, 49, 207, 61, 63, 103, 36, 0, 63, 0, 147, 127, 153, 192, 205, 205, 194, 130, 10, 189, 208, 78, 157, 63, 94, 232, 111, 189, 0, 103, 183, 0, 129, 0, 0, 127, 83, 61, 81, 206, 241, 62, 111, 189, 140, 104, 153, 63, 105, 49, 207, 189, 0, 103, 183, 0, 130, 0, 0, 127, 153, 64, 205, 205, 241, 62, 111, 61, 140, 104, 153, 63, 105, 49, 207, 189, 0, 103, 183, 0, 129, 0, 0, 127, 153, 192, 205, 205, 241, 62, 111, 61, 140, 104, 153, 63, 105, 49, 207, 189, 0, 103, 183, 0, 129, 0, 0, 127, 153, 192, 205, 205, 194, 130, 10, 61, 208, 78, 157, 63, 94, 232, 111, 189, 0, 103, 183, 0, 129, 0, 0, 127, 83, 189, 81, 206, 194, 130, 10, 189, 208, 78, 157, 63, 94, 232, 111, 189, 0, 103, 183, 0, 129, 0, 0, 127, 83, 61, 81, 206, 241, 62, 111, 189, 140, 104, 153, 63, 105, 49, 207, 61, 193, 103, 36, 0, 63, 0, 109, 127, 153, 64, 205, 205, 241, 62, 239, 189, 140, 104, 153, 63, 191, 14, 28, 42, 193, 103, 36, 0, 63, 0, 109, 127, 153, 192, 205, 205, 194, 130, 138, 189, 208, 78, 157, 63, 74, 12, 2, 41, 193, 103, 36, 0, 63, 0, 109, 127, 83, 189, 81, 206, 194, 130, 138, 189, 208, 78, 157, 63, 74, 12, 2, 41, 193, 103, 36, 0, 63, 0, 109, 127, 83, 189, 81, 206, 194, 130, 10, 189, 208, 78, 157, 63, 94, 232, 111, 61, 193, 103, 36, 0, 63, 0, 109, 127, 83, 61, 81, 206, 241, 62, 111, 189, 140, 104, 153, 63, 105, 49, 207, 61, 193, 103, 36, 0, 63, 0, 109, 127, 153, 64, 205, 205, 194, 130, 138, 61, 208, 78, 157, 63, 151, 144, 175, 169, 63, 103, 220, 0, 193, 0, 147, 127, 83, 189, 81, 206, 194, 130, 10, 61, 208, 78, 157, 63, 94, 232, 111, 189, 63, 103, 220, 0, 193, 0, 147, 127, 83, 61, 81, 206, 241, 62, 111, 61, 140, 104, 153, 63, 105, 49, 207, 189, 63, 103, 220, 0, 193, 0, 147, 127, 153, 64, 205, 205, 241, 62, 111, 61, 140, 104, 153, 63, 105, 49, 207, 189, 63, 103, 220, 0, 193, 0, 147, 127, 153, 64, 205, 205, 241, 62, 239, 61, 140, 104, 153, 63, 228, 20, 93, 170, 63, 103, 220, 0, 193, 0, 147, 127, 153, 192, 205, 205, 194, 130, 138, 61, 208, 78, 157, 63, 151, 144, 175, 169, 63, 103, 220, 0, 193, 0, 147, 127, 83, 189, 81, 206, 30, 216, 148, 60, 241, 151, 132, 63, 34, 231, 0, 189, 109, 0, 193, 0, 193, 0, 147, 127, 185, 57, 249, 208, 30, 216, 20, 61, 241, 151, 132, 63, 169, 19, 80, 169, 109, 0, 193, 0, 193, 0, 147, 127, 185, 185, 249, 208, 30, 216, 20, 61, 33, 62, 135, 63, 169, 19, 80, 169, 109, 0, 193, 0, 193, 0, 147, 127, 185, 185, 19, 209, 30, 216, 20, 61, 33, 62, 135, 63, 169, 19, 80, 169, 109, 0, 193, 0, 193, 0, 147, 127, 185, 185, 19, 209, 30, 216, 148, 60, 33, 62, 135, 63, 34, 231, 0, 189, 109, 0, 193, 0, 193, 0, 147, 127, 185, 57, 19, 209, 30, 216, 148, 60, 241, 151, 132, 63, 34, 231, 0, 189, 109, 0, 193, 0, 193, 0, 147, 127, 185, 57, 249, 208, 194, 130, 138, 60, 11, 22, 164, 63, 94, 232, 239, 60, 0, 61, 111, 0, 126, 0, 0, 127, 83, 57, 83, 209, 194, 130, 10, 61, 208, 78, 157, 63, 94, 232, 111, 61, 0, 61, 111, 0, 127, 0, 0, 127, 83, 61, 7, 209, 194, 130, 10, 189, 208, 78, 157, 63, 94, 232, 111, 61, 0, 61, 111, 0, 127, 0, 0, 127, 83, 189, 7, 209, 194, 130, 10, 189, 208, 78, 157, 63, 94, 232, 111, 61, 0, 61, 111, 0, 127, 0, 0, 127, 83, 189, 7, 209, 194, 130, 138, 188, 11, 22, 164, 63, 94, 232, 239, 60, 0, 61, 111, 0, 127, 0, 0, 127, 83, 185, 83, 209, 194, 130, 138, 60, 11, 22, 164, 63, 94, 232, 239, 60, 0, 61, 111, 0, 126, 0, 0, 127, 83, 57, 83, 209, 194, 130, 138, 188, 11, 22, 164, 63, 94, 232, 239, 188, 0, 61, 145, 0, 130, 0, 0, 127, 83, 57, 83, 209, 194, 130, 10, 189, 208, 78, 157, 63, 94, 232, 111, 189, 0, 61, 145, 0, 129, 0, 0, 127, 83, 61, 7, 209, 194, 130, 10, 61, 208, 78, 157, 63, 94, 232, 111, 189, 0, 61, 145, 0, 129, 0, 0, 127, 83, 189, 7, 209, 194, 130, 10, 61, 208, 78, 157, 63, 94, 232, 111, 189, 0, 61, 145, 0, 129, 0, 0, 127, 83, 189, 7, 209, 194, 130, 138, 60, 11, 22, 164, 63, 94, 232, 239, 188, 0, 61, 145, 0, 129, 0, 0, 127, 83, 185, 83, 209, 194, 130, 138, 188, 11, 22, 164, 63, 94, 232, 239, 188, 0, 61, 145, 0, 130, 0, 0, 127, 83, 57, 83, 209, 30, 216, 148, 60, 33, 62, 135, 63, 34, 231, 0, 61, 0, 0, 127, 0, 127, 0, 0, 127, 185, 57, 19, 209, 30, 216, 148, 60, 241, 151, 132, 63, 34, 231, 0, 61, 0, 0, 127, 0, 127, 0, 0, 127, 185, 57, 249, 208, 30, 216, 148, 188, 241, 151, 132, 63, 34, 231, 0, 61, 0, 0, 127, 0, 127, 0, 0, 127, 185, 185, 249, 208, 30, 216, 148, 188, 241, 151, 132, 63, 34, 231, 0, 61, 0, 0, 127, 0, 127, 0, 0, 127, 185, 185, 249, 208, 30, 216, 148, 188, 33, 62, 135, 63, 34, 231, 0, 61, 0, 0, 127, 0, 127, 0, 0, 127, 185, 185, 19, 209, 30, 216, 148, 60, 33, 62, 135, 63, 34, 231, 0, 61, 0, 0, 127, 0, 127, 0, 0, 127, 185, 57, 19, 209, 30, 216, 148, 60, 33, 62, 135, 63, 34, 231, 0, 189, 96, 195, 201, 0, 193, 0, 147, 127, 185, 57, 128, 208, 30, 216, 20, 61, 33, 62, 135, 63, 169, 19, 80, 169, 96, 195, 201, 0, 193, 0, 147, 127, 185, 185, 128, 208, 238, 85, 86, 61, 203, 114, 138, 63, 228, 20, 93, 169, 96, 195, 201, 0, 193, 0, 147, 127, 30, 188, 164, 208, 238, 85, 86, 61, 203, 114, 138, 63, 228, 20, 93, 169, 96, 195, 201, 0, 193, 0, 147, 127, 30, 188, 164, 208, 238, 85, 214, 60, 203, 114, 138, 63, 193, 158, 57, 189, 96, 195, 201, 0, 193, 0, 147, 127, 30, 60, 164, 208, 30, 216, 148, 60, 33, 62, 135, 63, 34, 231, 0, 189, 96, 195, 201, 0, 193, 0, 147, 127, 185, 57, 128, 208, 238, 85, 214, 188, 203, 114, 138, 63, 193, 158, 57, 189, 160, 195, 201, 0, 193, 0, 109, 127, 30, 188, 164, 208, 238, 85, 86, 189, 203, 114, 138, 63, 231, 140, 136, 41, 160, 195, 201, 0, 193, 0, 109, 127, 30, 60, 164, 208, 30, 216, 20, 189, 33, 62, 135, 63, 110, 18, 67, 41, 160, 195, 201, 0, 193, 0, 109, 127, 185, 57, 128, 208, 30, 216, 20, 189, 33, 62, 135, 63, 110, 18, 67, 41, 160, 195, 201, 0, 193, 0, 109, 127, 185, 57, 128, 208, 30, 216, 148, 188, 33, 62, 135, 63, 34, 231, 0, 189, 160, 195, 201, 0, 193, 0, 109, 127, 185, 185, 128, 208, 238, 85, 214, 188, 203, 114, 138, 63, 193, 158, 57, 189, 160, 195, 201, 0, 193, 0, 109, 127, 30, 188, 164, 208, 30, 216, 148, 188, 33, 62, 135, 63, 34, 231, 0, 189, 147, 0, 193, 0, 193, 0, 109, 127, 185, 185, 19, 209, 30, 216, 20, 189, 33, 62, 135, 63, 110, 18, 67, 41, 147, 0, 193, 0, 193, 0, 109, 127, 185, 57, 19, 209, 30, 216, 20, 189, 241, 151, 132, 63, 110, 18, 67, 41, 147, 0, 193, 0, 193, 0, 109, 127, 185, 57, 249, 208, 30, 216, 20, 189, 241, 151, 132, 63, 110, 18, 67, 41, 147, 0, 193, 0, 193, 0, 109, 127, 185, 57, 249, 208, 46, 68, 223, 188, 241, 151, 132, 63, 34, 231, 128, 188, 147, 0, 193, 0, 193, 0, 109, 127, 0, 0, 249, 208, 30, 216, 148, 188, 33, 62, 135, 63, 34, 231, 0, 189, 147, 0, 193, 0, 193, 0, 109, 127, 185, 185, 19, 209, 46, 68, 223, 188, 241, 151, 132, 63, 34, 231, 128, 188, 147, 0, 193, 0, 193, 0, 109, 127, 0, 0, 249, 208, 30, 216, 148, 188, 241, 151, 132, 63, 34, 231, 0, 189, 147, 0, 193, 0, 193, 0, 109, 127, 185, 185, 249, 208, 30, 216, 148, 188, 33, 62, 135, 63, 34, 231, 0, 189, 147, 0, 193, 0, 193, 0, 109, 127, 185, 185, 19, 209, 238, 85, 214, 60, 203, 114, 138, 63, 193, 158, 57, 61, 0, 195, 111, 0, 126, 0, 0, 127, 30, 60, 164, 208, 30, 216, 148, 60, 33, 62, 135, 63, 34, 231, 0, 61, 0, 195, 111, 0, 127, 0, 0, 127, 185, 57, 128, 208, 30, 216, 148, 188, 33, 62, 135, 63, 34, 231, 0, 61, 0, 195, 111, 0, 127, 0, 0, 127, 185, 185, 128, 208, 30, 216, 148, 188, 33, 62, 135, 63, 34, 231, 0, 61, 0, 195, 111, 0, 127, 0, 0, 127, 185, 185, 128, 208, 238, 85, 214, 188, 203, 114, 138, 63, 193, 158, 57, 61, 0, 195, 111, 0, 127, 0, 0, 127, 30, 188, 164, 208, 238, 85, 214, 60, 203, 114, 138, 63, 193, 158, 57, 61, 0, 195, 111, 0, 126, 0, 0, 127, 30, 60, 164, 208, 30, 216, 20, 189, 33, 62, 135, 63, 110, 18, 67, 41, 147, 0, 63, 0, 63, 0, 109, 127, 185, 185, 19, 209, 30, 216, 148, 188, 33, 62, 135, 63, 34, 231, 0, 61, 147, 0, 63, 0, 63, 0, 109, 127, 185, 57, 19, 209, 30, 216, 148, 188, 241, 151, 132, 63, 34, 231, 0, 61, 147, 0, 63, 0, 63, 0, 109, 127, 185, 57, 249, 208, 30, 216, 148, 188, 241, 151, 132, 63, 34, 231, 0, 61, 147, 0, 63, 0, 63, 0, 109, 127, 185, 57, 249, 208, 30, 216, 20, 189, 241, 151, 132, 63, 110, 18, 67, 41, 147, 0, 63, 0, 63, 0, 109, 127, 185, 185, 249, 208, 30, 216, 20, 189, 33, 62, 135, 63, 110, 18, 67, 41, 147, 0, 63, 0, 63, 0, 109, 127, 185, 185, 19, 209, 194, 130, 138, 188, 11, 22, 164, 63, 94, 232, 239, 60, 160, 61, 55, 0, 63, 0, 109, 127, 83, 57, 83, 209, 194, 130, 10, 189, 208, 78, 157, 63, 94, 232, 111, 61, 160, 61, 55, 0, 63, 0, 109, 127, 83, 61, 7, 209, 194, 130, 138, 189, 208, 78, 157, 63, 74, 12, 2, 41, 160, 61, 55, 0, 63, 0, 109, 127, 83, 189, 7, 209, 194, 130, 138, 189, 208, 78, 157, 63, 74, 12, 2, 41, 160, 61, 55, 0, 63, 0, 109, 127, 83, 189, 7, 209, 194, 130, 10, 189, 11, 22, 164, 63, 191, 14, 156, 40, 160, 61, 55, 0, 63, 0, 109, 127, 83, 185, 83, 209, 194, 130, 138, 188, 11, 22, 164, 63, 94, 232, 239, 60, 160, 61, 55, 0, 63, 0, 109, 127, 83, 57, 83, 209, 238, 85, 214, 188, 203, 114, 138, 63, 193, 158, 57, 189, 0, 195, 145, 0, 130, 0, 0, 127, 30, 60, 164, 208, 30, 216, 148, 188, 33, 62, 135, 63, 34, 231, 0, 189, 0, 195, 145, 0, 129, 0, 0, 127, 185, 57, 128, 208, 30, 216, 148, 60, 33, 62, 135, 63, 34, 231, 0, 189, 0, 195, 145, 0, 129, 0, 0, 127, 185, 185, 128, 208, 30, 216, 148, 60, 33, 62, 135, 63, 34, 231, 0, 189, 0, 195, 145, 0, 129, 0, 0, 127, 185, 185, 128, 208, 238, 85, 214, 60, 203, 114, 138, 63, 193, 158, 57, 189, 0, 195, 145, 0, 129, 0, 0, 127, 30, 188, 164, 208, 238, 85, 214, 188, 203, 114, 138, 63, 193, 158, 57, 189, 0, 195, 145, 0, 130, 0, 0, 127, 30, 60, 164, 208, 194, 130, 10, 189, 11, 22, 164, 63, 191, 14, 156, 40, 160, 61, 201, 0, 193, 0, 109, 127, 83, 57, 83, 209, 194, 130, 138, 189, 208, 78, 157, 63, 74, 12, 2, 41, 160, 61, 201, 0, 193, 0, 109, 127, 83, 61, 7, 209, 194, 130, 10, 189, 208, 78, 157, 63, 94, 232, 111, 189, 160, 61, 201, 0, 193, 0, 109, 127, 83, 189, 7, 209, 194, 130, 10, 189, 208, 78, 157, 63, 94, 232, 111, 189, 160, 61, 201, 0, 193, 0, 109, 127, 83, 189, 7, 209, 194, 130, 138, 188, 11, 22, 164, 63, 94, 232, 239, 188, 160, 61, 201, 0, 193, 0, 109, 127, 83, 185, 83, 209, 194, 130, 10, 189, 11, 22, 164, 63, 191, 14, 156, 40, 160, 61, 201, 0, 193, 0, 109, 127, 83, 57, 83, 209, 238, 85, 86, 189, 203, 114, 138, 63, 231, 140, 136, 41, 160, 195, 55, 0, 63, 0, 109, 127, 30, 188, 164, 208, 238, 85, 214, 188, 203, 114, 138, 63, 193, 158, 57, 61, 160, 195, 55, 0, 63, 0, 109, 127, 30, 60, 164, 208, 30, 216, 148, 188, 33, 62, 135, 63, 34, 231, 0, 61, 160, 195, 55, 0, 63, 0, 109, 127, 185, 57, 128, 208, 30, 216, 148, 188, 33, 62, 135, 63, 34, 231, 0, 61, 160, 195, 55, 0, 63, 0, 109, 127, 185, 57, 128, 208, 30, 216, 20, 189, 33, 62, 135, 63, 110, 18, 67, 41, 160, 195, 55, 0, 63, 0, 109, 127, 185, 185, 128, 208, 238, 85, 86, 189, 203, 114, 138, 63, 231, 140, 136, 41, 160, 195, 55, 0, 63, 0, 109, 127, 30, 188, 164, 208, 46, 68, 223, 60, 241, 151, 132, 63, 34, 231, 128, 60, 109, 0, 63, 0, 63, 0, 147, 127, 0, 0, 249, 208, 30, 216, 148, 60, 241, 151, 132, 63, 34, 231, 0, 61, 109, 0, 63, 0, 63, 0, 147, 127, 185, 185, 249, 208, 30, 216, 148, 60, 33, 62, 135, 63, 34, 231, 0, 61, 109, 0, 63, 0, 63, 0, 147, 127, 185, 185, 19, 209, 30, 216, 148, 60, 33, 62, 135, 63, 34, 231, 0, 61, 109, 0, 63, 0, 63, 0, 147, 127, 185, 185, 19, 209, 30, 216, 20, 61, 33, 62, 135, 63, 169, 19, 80, 169, 109, 0, 63, 0, 63, 0, 147, 127, 185, 57, 19, 209, 46, 68, 223, 60, 241, 151, 132, 63, 34, 231, 128, 60, 109, 0, 63, 0, 63, 0, 147, 127, 0, 0, 249, 208, 30, 216, 20, 61, 33, 62, 135, 63, 169, 19, 80, 169, 109, 0, 63, 0, 63, 0, 147, 127, 185, 57, 19, 209, 30, 216, 20, 61, 241, 151, 132, 63, 169, 19, 80, 169, 109, 0, 63, 0, 63, 0, 147, 127, 185, 57, 249, 208, 46, 68, 223, 60, 241, 151, 132, 63, 34, 231, 128, 60, 109, 0, 63, 0, 63, 0, 147, 127, 0, 0, 249, 208, 30, 216, 148, 60, 33, 62, 135, 63, 34, 231, 0, 61, 96, 195, 55, 0, 63, 0, 147, 127, 185, 185, 128, 208, 238, 85, 214, 60, 203, 114, 138, 63, 193, 158, 57, 61, 96, 195, 55, 0, 63, 0, 147, 127, 30, 188, 164, 208, 238, 85, 86, 61, 203, 114, 138, 63, 228, 20, 93, 169, 96, 195, 55, 0, 63, 0, 147, 127, 30, 60, 164, 208, 238, 85, 86, 61, 203, 114, 138, 63, 228, 20, 93, 169, 96, 195, 55, 0, 63, 0, 147, 127, 30, 60, 164, 208, 30, 216, 20, 61, 33, 62, 135, 63, 169, 19, 80, 169, 96, 195, 55, 0, 63, 0, 147, 127, 185, 57, 128, 208, 30, 216, 148, 60, 33, 62, 135, 63, 34, 231, 0, 61, 96, 195, 55, 0, 63, 0, 147, 127, 185, 185, 128, 208, 194, 130, 138, 61, 208, 78, 157, 63, 151, 144, 175, 169, 96, 61, 201, 0, 193, 0, 147, 127, 83, 189, 7, 209, 194, 130, 10, 61, 11, 22, 164, 63, 249, 15, 41, 169, 96, 61, 201, 0, 193, 0, 147, 127, 83, 185, 83, 209, 194, 130, 138, 60, 11, 22, 164, 63, 94, 232, 239, 188, 96, 61, 201, 0, 193, 0, 147, 127, 83, 57, 83, 209, 194, 130, 138, 60, 11, 22, 164, 63, 94, 232, 239, 188, 96, 61, 201, 0, 193, 0, 147, 127, 83, 57, 83, 209, 194, 130, 10, 61, 208, 78, 157, 63, 94, 232, 111, 189, 96, 61, 201, 0, 193, 0, 147, 127, 83, 61, 7, 209, 194, 130, 138, 61, 208, 78, 157, 63, 151, 144, 175, 169, 96, 61, 201, 0, 193, 0, 147, 127, 83, 189, 7, 209, 194, 130, 138, 61, 208, 78, 157, 63, 151, 144, 175, 169, 96, 61, 55, 0, 63, 0, 147, 127, 83, 61, 7, 209, 194, 130, 10, 61, 208, 78, 157, 63, 94, 232, 111, 61, 96, 61, 55, 0, 63, 0, 147, 127, 83, 189, 7, 209, 194, 130, 138, 60, 11, 22, 164, 63, 94, 232, 239, 60, 96, 61, 55, 0, 63, 0, 147, 127, 83, 185, 83, 209, 194, 130, 138, 60, 11, 22, 164, 63, 94, 232, 239, 60, 96, 61, 55, 0, 63, 0, 147, 127, 83, 185, 83, 209, 194, 130, 10, 61, 11, 22, 164, 63, 249, 15, 41, 169, 96, 61, 55, 0, 63, 0, 147, 127, 83, 57, 83, 209, 194, 130, 138, 61, 208, 78, 157, 63, 151, 144, 175, 169, 96, 61, 55, 0, 63, 0, 147, 127, 83, 61, 7, 209, 194, 130, 138, 188, 11, 22, 164, 63, 94, 232, 239, 60, 0, 127, 0, 0, 127, 0, 0, 127, 83, 185, 78, 64, 194, 130, 10, 189, 11, 22, 164, 63, 191, 14, 156, 40, 0, 127, 0, 0, 127, 0, 0, 127, 83, 189, 0, 60, 194, 130, 138, 188, 11, 22, 164, 63, 94, 232, 239, 188, 0, 127, 0, 0, 127, 0, 0, 127, 83, 185, 229, 176, 194, 130, 138, 188, 11, 22, 164, 63, 94, 232, 239, 188, 0, 127, 0, 0, 127, 0, 0, 127, 83, 185, 229, 176, 194, 130, 138, 60, 11, 22, 164, 63, 94, 232, 239, 188, 0, 127, 0, 0, 127, 0, 0, 127, 83, 57, 229, 176, 194, 130, 138, 188, 11, 22, 164, 63, 94, 232, 239, 60, 0, 127, 0, 0, 127, 0, 0, 127, 83, 185, 78, 64, 194, 130, 138, 60, 11, 22, 164, 63, 94, 232, 239, 188, 0, 127, 0, 0, 127, 0, 0, 127, 83, 57, 229, 176, 194, 130, 138, 60, 11, 22, 164, 63, 94, 232, 239, 60, 0, 127, 0, 0, 127, 0, 0, 127, 83, 57, 78, 64, 194, 130, 138, 188, 11, 22, 164, 63, 94, 232, 239, 60, 0, 127, 0, 0, 127, 0, 0, 127, 83, 185, 78, 64, 194, 130, 138, 60, 11, 22, 164, 63, 94, 232, 239, 188, 0, 127, 0, 0, 127, 0, 0, 127, 83, 57, 229, 176, 194, 130, 10, 61, 11, 22, 164, 63, 249, 15, 41, 169, 0, 127, 0, 0, 127, 0, 0, 127, 83, 61, 0, 60, 194, 130, 138, 60, 11, 22, 164, 63, 94, 232, 239, 60, 0, 127, 0, 0, 127, 0, 0, 127, 83, 57, 78, 64, 156, 160, 144, 61, 47, 135, 43, 61, 156, 160, 144, 61, 0, 18, 125, 0, 127, 0, 0, 127, 143, 65, 74, 179, 36, 52, 157, 61, 0, 0, 0, 0, 36, 52, 157, 61, 0, 18, 125, 0, 127, 0, 0, 127, 11, 66, 192, 61, 36, 52, 157, 189, 0, 0, 0, 0, 36, 52, 157, 61, 0, 18, 125, 0, 127, 0, 0, 127, 11, 194, 192, 61, 36, 52, 157, 189, 0, 0, 0, 0, 36, 52, 157, 61, 0, 18, 125, 0, 127, 0, 0, 127, 11, 194, 192, 61, 156, 160, 144, 189, 47, 135, 43, 61, 156, 160, 144, 61, 0, 18, 125, 0, 127, 0, 0, 127, 143, 193, 74, 179, 156, 160, 144, 61, 47, 135, 43, 61, 156, 160, 144, 61, 0, 18, 125, 0, 127, 0, 0, 127, 143, 65, 74, 179, 147, 111, 220, 188, 203, 221, 105, 62, 45, 231, 62, 189, 147, 254, 193, 0, 193, 0, 109, 127, 60, 188, 3, 200, 147, 111, 92, 189, 203, 221, 105, 62, 132, 13, 15, 41, 147, 254, 193, 0, 193, 0, 109, 127, 60, 60, 3, 200, 12, 205, 74, 189, 47, 135, 43, 61, 132, 13, 15, 41, 147, 254, 193, 0, 193, 0, 109, 127, 204, 59, 116, 185, 12, 205, 74, 189, 47, 135, 43, 61, 132, 13, 15, 41, 147, 254, 193, 0, 193, 0, 109, 127, 204, 59, 116, 185, 12, 205, 202, 188, 47, 135, 43, 61, 124, 161, 47, 189, 147, 254, 193, 0, 193, 0, 109, 127, 204, 187, 116, 185, 147, 111, 220, 188, 203, 221, 105, 62, 45, 231, 62, 189, 147, 254, 193, 0, 193, 0, 109, 127, 60, 188, 3, 200, 156, 160, 144, 189, 47, 135, 43, 61, 156, 160, 144, 189, 0, 18, 131, 0, 129, 0, 0, 127, 143, 65, 74, 179, 36, 52, 157, 189, 0, 0, 0, 0, 36, 52, 157, 189, 0, 18, 131, 0, 129, 0, 0, 127, 11, 66, 192, 61, 36, 52, 157, 61, 0, 0, 0, 0, 36, 52, 157, 189, 0, 18, 131, 0, 129, 0, 0, 127, 11, 194, 192, 61, 36, 52, 157, 61, 0, 0, 0, 0, 36, 52, 157, 189, 0, 18, 131, 0, 129, 0, 0, 127, 11, 194, 192, 61, 156, 160, 144, 61, 47, 135, 43, 61, 156, 160, 144, 189, 0, 18, 131, 0, 129, 0, 0, 127, 143, 193, 74, 179, 156, 160, 144, 189, 47, 135, 43, 61, 156, 160, 144, 189, 0, 18, 131, 0, 129, 0, 0, 127, 143, 65, 74, 179, 36, 52, 157, 61, 0, 0, 0, 0, 36, 52, 157, 189, 125, 18, 0, 0, 0, 0, 129, 127, 11, 66, 192, 61, 36, 52, 157, 61, 0, 0, 0, 0, 36, 52, 157, 61, 125, 18, 0, 0, 0, 0, 129, 127, 11, 194, 192, 61, 156, 160, 144, 61, 47, 135, 43, 61, 156, 160, 144, 61, 125, 18, 0, 0, 0, 0, 129, 127, 143, 193, 74, 179, 156, 160, 144, 61, 47, 135, 43, 61, 156, 160, 144, 61, 125, 18, 0, 0, 0, 0, 129, 127, 143, 193, 74, 179, 156, 160, 144, 61, 47, 135, 43, 61, 156, 160, 144, 189, 125, 18, 0, 0, 0, 0, 129, 127, 143, 65, 74, 179, 36, 52, 157, 61, 0, 0, 0, 0, 36, 52, 157, 189, 125, 18, 0, 0, 0, 0, 129, 127, 11, 66, 192, 61, 12, 205, 202, 60, 47, 135, 43, 61, 124, 161, 47, 61, 109, 254, 63, 0, 63, 0, 147, 127, 204, 187, 116, 185, 147, 111, 220, 60, 203, 221, 105, 62, 45, 231, 62, 61, 109, 254, 63, 0, 63, 0, 147, 127, 60, 188, 3, 200, 147, 111, 92, 61, 203, 221, 105, 62, 249, 15, 41, 169, 109, 254, 63, 0, 63, 0, 147, 127, 60, 60, 3, 200, 147, 111, 92, 61, 203, 221, 105, 62, 249, 15, 41, 169, 109, 254, 63, 0, 63, 0, 147, 127, 60, 60, 3, 200, 12, 205, 74, 61, 47, 135, 43, 61, 52, 17, 54, 169, 109, 254, 63, 0, 63, 0, 147, 127, 204, 59, 116, 185, 12, 205, 202, 60, 47, 135, 43, 61, 124, 161, 47, 61, 109, 254, 63, 0, 63, 0, 147, 127, 204, 187, 116, 185, 147, 111, 92, 189, 203, 221, 105, 62, 132, 13, 15, 41, 147, 254, 63, 0, 63, 0, 109, 127, 60, 188, 3, 200, 147, 111, 220, 188, 203, 221, 105, 62, 45, 231, 62, 61, 147, 254, 63, 0, 63, 0, 109, 127, 60, 60, 3, 200, 12, 205, 202, 188, 47, 135, 43, 61, 124, 161, 47, 61, 147, 254, 63, 0, 63, 0, 109, 127, 204, 59, 116, 185, 12, 205, 202, 188, 47, 135, 43, 61, 124, 161, 47, 61, 147, 254, 63, 0, 63, 0, 109, 127, 204, 59, 116, 185, 12, 205, 74, 189, 47, 135, 43, 61, 132, 13, 15, 41, 147, 254, 63, 0, 63, 0, 109, 127, 204, 187, 116, 185, 147, 111, 92, 189, 203, 221, 105, 62, 132, 13, 15, 41, 147, 254, 63, 0, 63, 0, 109, 127, 60, 188, 3, 200, 147, 111, 220, 188, 203, 221, 105, 62, 45, 231, 62, 189, 0, 254, 130, 0, 129, 0, 0, 127, 60, 60, 3, 200, 12, 205, 202, 188, 47, 135, 43, 61, 124, 161, 47, 189, 0, 254, 130, 0, 129, 0, 0, 127, 204, 59, 116, 185, 169, 19, 208, 38, 47, 135, 43, 61, 124, 161, 47, 189, 0, 254, 130, 0, 129, 0, 0, 127, 0, 0, 116, 185, 169, 19, 208, 38, 47, 135, 43, 61, 124, 161, 47, 189, 0, 254, 130, 0, 129, 0, 0, 127, 0, 0, 116, 185, 12, 205, 202, 60, 47, 135, 43, 61, 124, 161, 47, 189, 0, 254, 130, 0, 130, 0, 0, 127, 204, 187, 116, 185, 147, 111, 220, 188, 203, 221, 105, 62, 45, 231, 62, 189, 0, 254, 130, 0, 129, 0, 0, 127, 60, 60, 3, 200, 12, 205, 202, 60, 47, 135, 43, 61, 124, 161, 47, 189, 0, 254, 130, 0, 130, 0, 0, 127, 204, 187, 116, 185, 147, 111, 220, 60, 203, 221, 105, 62, 45, 231, 62, 189, 0, 254, 130, 0, 129, 0, 0, 127, 60, 188, 3, 200, 147, 111, 220, 188, 203, 221, 105, 62, 45, 231, 62, 189, 0, 254, 130, 0, 129, 0, 0, 127, 60, 60, 3, 200, 147, 111, 220, 60, 203, 221, 105, 62, 45, 231, 62, 189, 0, 254, 130, 0, 129, 0, 0, 127, 60, 188, 3, 200, 169, 19, 208, 166, 203, 221, 105, 62, 45, 231, 62, 189, 0, 254, 130, 0, 127, 0, 0, 127, 0, 0, 3, 200, 147, 111, 220, 188, 203, 221, 105, 62, 45, 231, 62, 189, 0, 254, 130, 0, 129, 0, 0, 127, 60, 60, 3, 200, 12, 205, 74, 61, 47, 135, 43, 61, 52, 17, 54, 169, 109, 254, 193, 0, 193, 0, 147, 127, 204, 187, 116, 185, 147, 111, 92, 61, 203, 221, 105, 62, 249, 15, 41, 169, 109, 254, 193, 0, 193, 0, 147, 127, 60, 188, 3, 200, 147, 111, 220, 60, 203, 221, 105, 62, 45, 231, 62, 189, 109, 254, 193, 0, 193, 0, 147, 127, 60, 60, 3, 200, 147, 111, 220, 60, 203, 221, 105, 62, 45, 231, 62, 189, 109, 254, 193, 0, 193, 0, 147, 127, 60, 60, 3, 200, 12, 205, 202, 60, 47, 135, 43, 61, 124, 161, 47, 189, 109, 254, 193, 0, 193, 0, 147, 127, 204, 59, 116, 185, 12, 205, 74, 61, 47, 135, 43, 61, 52, 17, 54, 169, 109, 254, 193, 0, 193, 0, 147, 127, 204, 187, 116, 185, 147, 111, 220, 60, 203, 221, 105, 62, 45, 231, 62, 61, 0, 254, 126, 0, 127, 0, 0, 127, 60, 60, 3, 200, 12, 205, 202, 60, 47, 135, 43, 61, 124, 161, 47, 61, 0, 254, 126, 0, 127, 0, 0, 127, 204, 59, 116, 185, 12, 147, 201, 168, 47, 135, 43, 61, 124, 161, 47, 61, 0, 254, 126, 0, 127, 0, 0, 127, 0, 0, 116, 185, 12, 147, 201, 168, 47, 135, 43, 61, 124, 161, 47, 61, 0, 254, 126, 0, 127, 0, 0, 127, 0, 0, 116, 185, 12, 205, 202, 188, 47, 135, 43, 61, 124, 161, 47, 61, 0, 254, 126, 0, 126, 0, 0, 127, 204, 187, 116, 185, 147, 111, 220, 60, 203, 221, 105, 62, 45, 231, 62, 61, 0, 254, 126, 0, 127, 0, 0, 127, 60, 60, 3, 200, 12, 205, 202, 188, 47, 135, 43, 61, 124, 161, 47, 61, 0, 254, 126, 0, 126, 0, 0, 127, 204, 187, 116, 185, 147, 111, 220, 188, 203, 221, 105, 62, 45, 231, 62, 61, 0, 254, 126, 0, 127, 0, 0, 127, 60, 188, 3, 200, 147, 111, 220, 60, 203, 221, 105, 62, 45, 231, 62, 61, 0, 254, 126, 0, 127, 0, 0, 127, 60, 60, 3, 200, 147, 111, 220, 188, 203, 221, 105, 62, 45, 231, 62, 61, 0, 254, 126, 0, 127, 0, 0, 127, 60, 188, 3, 200, 89, 23, 247, 168, 203, 221, 105, 62, 45, 231, 62, 61, 0, 254, 126, 0, 127, 0, 0, 129, 0, 0, 3, 200, 147, 111, 220, 60, 203, 221, 105, 62, 45, 231, 62, 61, 0, 254, 126, 0, 127, 0, 0, 127, 60, 60, 3, 200, 156, 160, 144, 189, 47, 135, 43, 61, 156, 160, 144, 61, 131, 18, 0, 0, 0, 0, 127, 127, 143, 65, 74, 179, 36, 52, 157, 189, 0, 0, 0, 0, 36, 52, 157, 61, 131, 18, 0, 0, 0, 0, 127, 127, 11, 66, 192, 61, 36, 52, 157, 189, 0, 0, 0, 0, 36, 52, 157, 189, 131, 18, 0, 0, 0, 0, 127, 127, 11, 194, 192, 61, 36, 52, 157, 189, 0, 0, 0, 0, 36, 52, 157, 189, 131, 18, 0, 0, 0, 0, 127, 127, 11, 194, 192, 61, 156, 160, 144, 189, 47, 135, 43, 61, 156, 160, 144, 189, 131, 18, 0, 0, 0, 0, 127, 127, 143, 193, 74, 179, 156, 160, 144, 189, 47, 135, 43, 61, 156, 160, 144, 61, 131, 18, 0, 0, 0, 0, 127, 127, 143, 65, 74, 179, 174, 31, 145, 188, 246, 138, 152, 62, 152, 92, 251, 188, 147, 0, 193, 0, 193, 0, 109, 127, 148, 185, 93, 201, 174, 31, 17, 189, 246, 138, 152, 62, 169, 19, 80, 40, 147, 0, 193, 0, 193, 0, 109, 127, 148, 57, 93, 201, 174, 31, 17, 189, 244, 156, 145, 62, 169, 19, 80, 40, 147, 0, 193, 0, 193, 0, 109, 127, 148, 57, 25, 201, 174, 31, 17, 189, 244, 156, 145, 62, 169, 19, 80, 40, 147, 0, 193, 0, 193, 0, 109, 127, 148, 57, 25, 201, 174, 31, 145, 188, 244, 156, 145, 62, 152, 92, 251, 188, 147, 0, 193, 0, 193, 0, 109, 127, 148, 185, 25, 201, 174, 31, 145, 188, 246, 138, 152, 62, 152, 92, 251, 188, 147, 0, 193, 0, 193, 0, 109, 127, 148, 185, 93, 201, 174, 31, 145, 60, 246, 138, 152, 62, 152, 92, 251, 60, 0, 0, 127, 0, 127, 0, 0, 127, 148, 57, 93, 201, 174, 31, 145, 60, 244, 156, 145, 62, 152, 92, 251, 60, 0, 0, 127, 0, 127, 0, 0, 127, 148, 57, 25, 201, 174, 31, 145, 188, 244, 156, 145, 62, 152, 92, 251, 60, 0, 0, 127, 0, 127, 0, 0, 127, 148, 185, 25, 201, 174, 31, 145, 188, 244, 156, 145, 62, 152, 92, 251, 60, 0, 0, 127, 0, 127, 0, 0, 127, 148, 185, 25, 201, 174, 31, 145, 188, 246, 138, 152, 62, 152, 92, 251, 60, 0, 0, 127, 0, 127, 0, 0, 127, 148, 185, 93, 201, 174, 31, 145, 60, 246, 138, 152, 62, 152, 92, 251, 60, 0, 0, 127, 0, 127, 0, 0, 127, 148, 57, 93, 201, 174, 31, 17, 189, 246, 138, 152, 62, 169, 19, 80, 40, 147, 0, 63, 0, 63, 0, 109, 127, 148, 185, 93, 201, 174, 31, 145, 188, 246, 138, 152, 62, 152, 92, 251, 60, 147, 0, 63, 0, 63, 0, 109, 127, 148, 57, 93, 201, 174, 31, 145, 188, 244, 156, 145, 62, 152, 92, 251, 60, 147, 0, 63, 0, 63, 0, 109, 127, 148, 57, 25, 201, 174, 31, 145, 188, 244, 156, 145, 62, 152, 92, 251, 60, 147, 0, 63, 0, 63, 0, 109, 127, 148, 57, 25, 201, 174, 31, 17, 189, 244, 156, 145, 62, 169, 19, 80, 40, 147, 0, 63, 0, 63, 0, 109, 127, 148, 185, 25, 201, 174, 31, 17, 189, 246, 138, 152, 62, 169, 19, 80, 40, 147, 0, 63, 0, 63, 0, 109, 127, 148, 185, 93, 201, 174, 31, 17, 61, 244, 156, 145, 62, 132, 13, 15, 169, 109, 0, 63, 0, 63, 0, 147, 127, 148, 57, 25, 201, 174, 31, 145, 60, 244, 156, 145, 62, 152, 92, 251, 60, 109, 0, 63, 0, 63, 0, 147, 127, 148, 185, 25, 201, 174, 31, 145, 60, 246, 138, 152, 62, 152, 92, 251, 60, 109, 0, 63, 0, 63, 0, 147, 127, 148, 185, 93, 201, 174, 31, 145, 60, 246, 138, 152, 62, 152, 92, 251, 60, 109, 0, 63, 0, 63, 0, 147, 127, 148, 185, 93, 201, 174, 31, 17, 61, 246, 138, 152, 62, 132, 13, 15, 169, 109, 0, 63, 0, 63, 0, 147, 127, 148, 57, 93, 201, 174, 31, 17, 61, 244, 156, 145, 62, 132, 13, 15, 169, 109, 0, 63, 0, 63, 0, 147, 127, 148, 57, 25, 201, 174, 31, 145, 188, 246, 138, 152, 62, 152, 92, 251, 188, 0, 0, 129, 0, 129, 0, 0, 127, 148, 57, 93, 201, 174, 31, 145, 188, 244, 156, 145, 62, 152, 92, 251, 188, 0, 0, 129, 0, 129, 0, 0, 127, 148, 57, 25, 201, 174, 31, 145, 60, 244, 156, 145, 62, 152, 92, 251, 188, 0, 0, 129, 0, 129, 0, 0, 127, 148, 185, 25, 201, 174, 31, 145, 60, 244, 156, 145, 62, 152, 92, 251, 188, 0, 0, 129, 0, 129, 0, 0, 127, 148, 185, 25, 201, 174, 31, 145, 60, 246, 138, 152, 62, 152, 92, 251, 188, 0, 0, 129, 0, 129, 0, 0, 127, 148, 185, 93, 201, 174, 31, 145, 188, 246, 138, 152, 62, 152, 92, 251, 188, 0, 0, 129, 0, 129, 0, 0, 127, 148, 57, 93, 201, 174, 31, 145, 60, 244, 156, 145, 62, 152, 92, 251, 188, 109, 0, 193, 0, 193, 0, 147, 127, 148, 57, 25, 201, 174, 31, 17, 61, 244, 156, 145, 62, 132, 13, 15, 169, 109, 0, 193, 0, 193, 0, 147, 127, 148, 185, 25, 201, 174, 31, 17, 61, 246, 138, 152, 62, 132, 13, 15, 169, 109, 0, 193, 0, 193, 0, 147, 127, 148, 185, 93, 201, 174, 31, 17, 61, 246, 138, 152, 62, 132, 13, 15, 169, 109, 0, 193, 0, 193, 0, 147, 127, 148, 185, 93, 201, 174, 31, 145, 60, 246, 138, 152, 62, 152, 92, 251, 188, 109, 0, 193, 0, 193, 0, 147, 127, 148, 57, 93, 201, 174, 31, 145, 60, 244, 156, 145, 62, 152, 92, 251, 188, 109, 0, 193, 0, 193, 0, 147, 127, 148, 57, 25, 201, 77, 62, 74, 60, 250, 120, 159, 62, 220, 37, 175, 60, 0, 71, 104, 0, 127, 0, 0, 127, 198, 55, 80, 200, 174, 31, 145, 60, 246, 138, 152, 62, 152, 92, 251, 60, 0, 71, 104, 0, 127, 0, 0, 127, 148, 57, 251, 199, 174, 31, 145, 188, 246, 138, 152, 62, 152, 92, 251, 60, 0, 71, 104, 0, 127, 0, 0, 127, 148, 185, 251, 199, 174, 31, 145, 188, 246, 138, 152, 62, 152, 92, 251, 60, 0, 71, 104, 0, 127, 0, 0, 127, 148, 185, 251, 199, 77, 62, 74, 188, 250, 120, 159, 62, 220, 37, 175, 60, 0, 71, 104, 0, 126, 0, 0, 127, 198, 183, 80, 200, 77, 62, 74, 60, 250, 120, 159, 62, 220, 37, 175, 60, 0, 71, 104, 0, 127, 0, 0, 127, 198, 55, 80, 200, 174, 31, 17, 61, 246, 138, 152, 62, 132, 13, 15, 169, 90, 71, 52, 0, 63, 0, 147, 127, 148, 57, 251, 199, 174, 31, 145, 60, 246, 138, 152, 62, 152, 92, 251, 60, 90, 71, 52, 0, 63, 0, 147, 127, 148, 185, 251, 199, 77, 62, 74, 60, 250, 120, 159, 62, 220, 37, 175, 60, 90, 71, 52, 0, 63, 0, 147, 127, 198, 183, 80, 200, 77, 62, 74, 60, 250, 120, 159, 62, 220, 37, 175, 60, 90, 71, 52, 0, 63, 0, 147, 127, 198, 183, 80, 200, 77, 62, 202, 60, 250, 120, 159, 62, 191, 14, 156, 168, 90, 71, 52, 0, 63, 0, 147, 127, 198, 55, 80, 200, 174, 31, 17, 61, 246, 138, 152, 62, 132, 13, 15, 169, 90, 71, 52, 0, 63, 0, 147, 127, 148, 57, 251, 199, 77, 62, 74, 188, 250, 120, 159, 62, 220, 37, 175, 60, 166, 71, 52, 0, 63, 0, 109, 127, 198, 55, 80, 200, 174, 31, 145, 188, 246, 138, 152, 62, 152, 92, 251, 60, 166, 71, 52, 0, 63, 0, 109, 127, 148, 57, 251, 199, 174, 31, 17, 189, 246, 138, 152, 62, 169, 19, 80, 40, 166, 71, 52, 0, 63, 0, 109, 127, 148, 185, 251, 199, 174, 31, 17, 189, 246, 138, 152, 62, 169, 19, 80, 40, 166, 71, 52, 0, 63, 0, 109, 127, 148, 185, 251, 199, 77, 62, 202, 188, 250, 120, 159, 62, 169, 19, 80, 40, 166, 71, 52, 0, 63, 0, 109, 127, 198, 183, 80, 200, 77, 62, 74, 188, 250, 120, 159, 62, 220, 37, 175, 60, 166, 71, 52, 0, 63, 0, 109, 127, 198, 55, 80, 200, 77, 62, 74, 188, 250, 120, 159, 62, 220, 37, 175, 188, 166, 71, 204, 0, 193, 0, 109, 127, 198, 183, 80, 200, 77, 62, 202, 188, 250, 120, 159, 62, 169, 19, 80, 40, 166, 71, 204, 0, 193, 0, 109, 127, 198, 55, 80, 200, 174, 31, 17, 189, 246, 138, 152, 62, 169, 19, 80, 40, 166, 71, 204, 0, 193, 0, 109, 127, 148, 57, 251, 199, 174, 31, 17, 189, 246, 138, 152, 62, 169, 19, 80, 40, 166, 71, 204, 0, 193, 0, 109, 127, 148, 57, 251, 199, 174, 31, 145, 188, 246, 138, 152, 62, 152, 92, 251, 188, 166, 71, 204, 0, 193, 0, 109, 127, 148, 185, 251, 199, 77, 62, 74, 188, 250, 120, 159, 62, 220, 37, 175, 188, 166, 71, 204, 0, 193, 0, 109, 127, 198, 183, 80, 200, 77, 62, 74, 188, 250, 120, 159, 62, 220, 37, 175, 188, 0, 71, 152, 0, 129, 0, 0, 127, 198, 55, 80, 200, 174, 31, 145, 188, 246, 138, 152, 62, 152, 92, 251, 188, 0, 71, 152, 0, 129, 0, 0, 127, 148, 57, 251, 199, 174, 31, 145, 60, 246, 138, 152, 62, 152, 92, 251, 188, 0, 71, 152, 0, 129, 0, 0, 127, 148, 185, 251, 199, 174, 31, 145, 60, 246, 138, 152, 62, 152, 92, 251, 188, 0, 71, 152, 0, 129, 0, 0, 127, 148, 185, 251, 199, 77, 62, 74, 60, 250, 120, 159, 62, 220, 37, 175, 188, 0, 71, 152, 0, 130, 0, 0, 127, 198, 183, 80, 200, 77, 62, 74, 188, 250, 120, 159, 62, 220, 37, 175, 188, 0, 71, 152, 0, 129, 0, 0, 127, 198, 55, 80, 200, 174, 31, 17, 61, 246, 138, 152, 62, 132, 13, 15, 169, 90, 71, 204, 0, 193, 0, 147, 127, 148, 185, 251, 199, 77, 62, 202, 60, 250, 120, 159, 62, 191, 14, 156, 168, 90, 71, 204, 0, 193, 0, 147, 127, 198, 183, 80, 200, 77, 62, 74, 60, 250, 120, 159, 62, 220, 37, 175, 188, 90, 71, 204, 0, 193, 0, 147, 127, 198, 55, 80, 200, 77, 62, 74, 60, 250, 120, 159, 62, 220, 37, 175, 188, 90, 71, 204, 0, 193, 0, 147, 127, 198, 55, 80, 200, 174, 31, 145, 60, 246, 138, 152, 62, 152, 92, 251, 188, 90, 71, 204, 0, 193, 0, 147, 127, 148, 57, 251, 199, 174, 31, 17, 61, 246, 138, 152, 62, 132, 13, 15, 169, 90, 71, 204, 0, 193, 0, 147, 127, 148, 185, 251, 199, 77, 62, 202, 60, 250, 120, 159, 62, 191, 14, 156, 168, 109, 1, 63, 0, 63, 0, 147, 127, 198, 55, 160, 201, 77, 62, 74, 60, 250, 120, 159, 62, 220, 37, 175, 60, 109, 1, 63, 0, 63, 0, 147, 127, 198, 183, 160, 201, 69, 140, 11, 60, 241, 151, 132, 63, 63, 180, 113, 60, 109, 1, 63, 0, 63, 0, 147, 127, 93, 181, 248, 208, 69, 140, 11, 60, 241, 151, 132, 63, 63, 180, 113, 60, 109, 1, 63, 0, 63, 0, 147, 127, 93, 181, 248, 208, 69, 140, 139, 60, 241, 151, 132, 63, 191, 14, 156, 168, 109, 1, 63, 0, 63, 0, 147, 127, 93, 53, 248, 208, 77, 62, 202, 60, 250, 120, 159, 62, 191, 14, 156, 168, 109, 1, 63, 0, 63, 0, 147, 127, 198, 55, 160, 201, 69, 140, 11, 188, 241, 151, 132, 63, 63, 180, 113, 188, 0, 1, 130, 0, 129, 0, 0, 127, 93, 53, 248, 208, 77, 62, 74, 188, 250, 120, 159, 62, 220, 37, 175, 188, 0, 1, 130, 0, 129, 0, 0, 127, 198, 55, 160, 201, 77, 62, 74, 60, 250, 120, 159, 62, 220, 37, 175, 188, 0, 1, 130, 0, 129, 0, 0, 127, 198, 183, 160, 201, 77, 62, 74, 60, 250, 120, 159, 62, 220, 37, 175, 188, 0, 1, 130, 0, 129, 0, 0, 127, 198, 183, 160, 201, 69, 140, 11, 60, 241, 151, 132, 63, 63, 180, 113, 188, 0, 1, 130, 0, 129, 0, 0, 127, 93, 181, 248, 208, 69, 140, 11, 188, 241, 151, 132, 63, 63, 180, 113, 188, 0, 1, 130, 0, 129, 0, 0, 127, 93, 53, 248, 208, 69, 140, 11, 188, 241, 151, 132, 63, 63, 180, 113, 60, 147, 1, 63, 0, 63, 0, 109, 127, 93, 53, 248, 208, 77, 62, 74, 188, 250, 120, 159, 62, 220, 37, 175, 60, 147, 1, 63, 0, 63, 0, 109, 127, 198, 55, 160, 201, 77, 62, 202, 188, 250, 120, 159, 62, 169, 19, 80, 40, 147, 1, 63, 0, 63, 0, 109, 127, 198, 183, 160, 201, 77, 62, 202, 188, 250, 120, 159, 62, 169, 19, 80, 40, 147, 1, 63, 0, 63, 0, 109, 127, 198, 183, 160, 201, 69, 140, 139, 188, 241, 151, 132, 63, 169, 19, 80, 39, 147, 1, 63, 0, 63, 0, 109, 127, 93, 181, 248, 208, 69, 140, 11, 188, 241, 151, 132, 63, 63, 180, 113, 60, 147, 1, 63, 0, 63, 0, 109, 127, 93, 53, 248, 208, 69, 140, 139, 188, 241, 151, 132, 63, 169, 19, 80, 39, 147, 1, 193, 0, 193, 0, 109, 127, 93, 53, 248, 208, 77, 62, 202, 188, 250, 120, 159, 62, 169, 19, 80, 40, 147, 1, 193, 0, 193, 0, 109, 127, 198, 55, 160, 201, 77, 62, 74, 188, 250, 120, 159, 62, 220, 37, 175, 188, 147, 1, 193, 0, 193, 0, 109, 127, 198, 183, 160, 201, 77, 62, 74, 188, 250, 120, 159, 62, 220, 37, 175, 188, 147, 1, 193, 0, 193, 0, 109, 127, 198, 183, 160, 201, 69, 140, 11, 188, 241, 151, 132, 63, 63, 180, 113, 188, 147, 1, 193, 0, 193, 0, 109, 127, 93, 181, 248, 208, 69, 140, 139, 188, 241, 151, 132, 63, 169, 19, 80, 39, 147, 1, 193, 0, 193, 0, 109, 127, 93, 53, 248, 208, 77, 62, 74, 60, 250, 120, 159, 62, 220, 37, 175, 188, 109, 1, 193, 0, 193, 0, 147, 127, 198, 55, 160, 201, 77, 62, 202, 60, 250, 120, 159, 62, 191, 14, 156, 168, 109, 1, 193, 0, 193, 0, 147, 127, 198, 183, 160, 201, 69, 140, 139, 60, 241, 151, 132, 63, 191, 14, 156, 168, 109, 1, 193, 0, 193, 0, 147, 127, 93, 181, 248, 208, 69, 140, 139, 60, 241, 151, 132, 63, 191, 14, 156, 168, 109, 1, 193, 0, 193, 0, 147, 127, 93, 181, 248, 208, 69, 140, 11, 60, 241, 151, 132, 63, 63, 180, 113, 188, 109, 1, 193, 0, 193, 0, 147, 127, 93, 53, 248, 208, 77, 62, 74, 60, 250, 120, 159, 62, 220, 37, 175, 188, 109, 1, 193, 0, 193, 0, 147, 127, 198, 55, 160, 201, 69, 140, 11, 60, 241, 151, 132, 63, 63, 180, 113, 60, 0, 1, 126, 0, 127, 0, 0, 127, 93, 53, 248, 208, 77, 62, 74, 60, 250, 120, 159, 62, 220, 37, 175, 60, 0, 1, 126, 0, 127, 0, 0, 127, 198, 55, 160, 201, 77, 62, 74, 188, 250, 120, 159, 62, 220, 37, 175, 60, 0, 1, 126, 0, 127, 0, 0, 127, 198, 183, 160, 201, 77, 62, 74, 188, 250, 120, 159, 62, 220, 37, 175, 60, 0, 1, 126, 0, 127, 0, 0, 127, 198, 183, 160, 201, 69, 140, 11, 188, 241, 151, 132, 63, 63, 180, 113, 60, 0, 1, 126, 0, 127, 0, 0, 127, 93, 181, 248, 208, 69, 140, 11, 60, 241, 151, 132, 63, 63, 180, 113, 60, 0, 1, 126, 0, 127, 0, 0, 127, 93, 53, 248, 208 ),
"array_index_data": PoolByteArray(  ),
"blend_shape_data": [  ],
"format": 97303,
"index_count": 0,
"material": ExtResource( 1 ),
"primitive": 4,
"skeleton_aabb": [  ],
"vertex_count": 534
}
surfaces/1 = {
"aabb": AABB( -0.0726778, 1.08163, -0.0629409, 0.145356, 0.116875, 0.125882 ),
"array_data": PoolByteArray( 238, 85, 214, 60, 203, 114, 138, 63, 193, 158, 57, 189, 108, 238, 194, 0, 21, 125, 0, 127, 153, 192, 205, 205, 238, 85, 86, 61, 203, 114, 138, 63, 228, 20, 93, 169, 108, 238, 194, 0, 21, 125, 0, 127, 83, 189, 81, 206, 30, 216, 148, 61, 140, 104, 153, 63, 74, 12, 2, 170, 108, 238, 194, 0, 21, 125, 0, 127, 83, 61, 81, 206, 30, 216, 148, 61, 140, 104, 153, 63, 74, 12, 2, 170, 108, 238, 194, 0, 246, 131, 18, 127, 153, 192, 205, 205, 30, 216, 20, 61, 140, 104, 153, 63, 34, 231, 128, 189, 108, 238, 194, 0, 246, 131, 18, 127, 83, 189, 81, 206, 238, 85, 214, 60, 203, 114, 138, 63, 193, 158, 57, 189, 108, 238, 194, 0, 246, 131, 18, 127, 83, 61, 81, 206, 30, 216, 20, 189, 140, 104, 153, 63, 34, 231, 128, 189, 0, 238, 131, 0, 127, 0, 0, 127, 153, 192, 205, 205, 238, 85, 214, 188, 203, 114, 138, 63, 193, 158, 57, 189, 0, 238, 131, 0, 127, 0, 0, 127, 83, 189, 81, 206, 238, 85, 214, 60, 203, 114, 138, 63, 193, 158, 57, 189, 0, 238, 131, 0, 127, 0, 0, 127, 83, 61, 81, 206, 238, 85, 214, 60, 203, 114, 138, 63, 193, 158, 57, 189, 0, 238, 131, 0, 130, 0, 0, 127, 153, 192, 205, 205, 30, 216, 20, 61, 140, 104, 153, 63, 34, 231, 128, 189, 0, 238, 131, 0, 130, 0, 0, 127, 83, 189, 81, 206, 30, 216, 20, 189, 140, 104, 153, 63, 34, 231, 128, 189, 0, 238, 131, 0, 129, 0, 0, 127, 83, 61, 81, 206, 30, 216, 20, 189, 140, 104, 153, 63, 34, 231, 128, 189, 148, 238, 194, 0, 21, 131, 0, 127, 185, 185, 249, 208, 30, 216, 148, 189, 140, 104, 153, 63, 33, 142, 149, 41, 148, 238, 194, 0, 21, 131, 0, 127, 185, 185, 19, 209, 238, 85, 86, 189, 203, 114, 138, 63, 231, 140, 136, 41, 148, 238, 194, 0, 21, 131, 0, 127, 185, 57, 19, 209, 238, 85, 86, 189, 203, 114, 138, 63, 231, 140, 136, 41, 148, 238, 194, 0, 246, 125, 238, 127, 185, 185, 249, 208, 238, 85, 214, 188, 203, 114, 138, 63, 193, 158, 57, 189, 148, 238, 194, 0, 246, 125, 238, 127, 185, 185, 19, 209, 30, 216, 20, 189, 140, 104, 153, 63, 34, 231, 128, 189, 148, 238, 194, 0, 246, 125, 238, 127, 185, 57, 19, 209, 30, 216, 20, 61, 140, 104, 153, 63, 34, 231, 128, 61, 0, 238, 125, 0, 129, 0, 0, 127, 185, 185, 249, 208, 238, 85, 214, 60, 203, 114, 138, 63, 193, 158, 57, 61, 0, 238, 125, 0, 129, 0, 0, 127, 185, 185, 19, 209, 238, 85, 214, 188, 203, 114, 138, 63, 193, 158, 57, 61, 0, 238, 125, 0, 129, 0, 0, 127, 185, 57, 19, 209, 238, 85, 214, 188, 203, 114, 138, 63, 193, 158, 57, 61, 0, 238, 125, 0, 126, 0, 0, 127, 185, 185, 249, 208, 30, 216, 20, 189, 140, 104, 153, 63, 34, 231, 128, 61, 0, 238, 125, 0, 126, 0, 0, 127, 185, 185, 19, 209, 30, 216, 20, 61, 140, 104, 153, 63, 34, 231, 128, 61, 0, 238, 125, 0, 127, 0, 0, 127, 185, 57, 19, 209, 30, 216, 148, 189, 140, 104, 153, 63, 33, 142, 149, 41, 148, 238, 62, 0, 246, 125, 18, 127, 83, 61, 81, 206, 30, 216, 20, 189, 140, 104, 153, 63, 34, 231, 128, 61, 148, 238, 62, 0, 246, 125, 18, 127, 153, 64, 205, 205, 238, 85, 214, 188, 203, 114, 138, 63, 193, 158, 57, 61, 148, 238, 62, 0, 246, 125, 18, 127, 153, 192, 205, 205, 238, 85, 214, 188, 203, 114, 138, 63, 193, 158, 57, 61, 148, 238, 62, 0, 21, 131, 0, 127, 83, 61, 81, 206, 238, 85, 86, 189, 203, 114, 138, 63, 231, 140, 136, 41, 148, 238, 62, 0, 21, 131, 0, 127, 153, 64, 205, 205, 30, 216, 148, 189, 140, 104, 153, 63, 33, 142, 149, 41, 148, 238, 62, 0, 21, 131, 0, 127, 153, 192, 205, 205, 238, 85, 214, 60, 203, 114, 138, 63, 193, 158, 57, 61, 108, 238, 62, 0, 63, 0, 147, 127, 153, 192, 205, 205, 30, 216, 20, 61, 140, 104, 153, 63, 34, 231, 128, 61, 108, 238, 62, 0, 63, 0, 147, 127, 83, 189, 81, 206, 30, 216, 148, 61, 140, 104, 153, 63, 74, 12, 2, 170, 108, 238, 62, 0, 63, 0, 147, 127, 83, 61, 81, 206, 30, 216, 148, 61, 140, 104, 153, 63, 74, 12, 2, 170, 108, 238, 62, 0, 193, 0, 109, 127, 153, 192, 205, 205, 238, 85, 86, 61, 203, 114, 138, 63, 228, 20, 93, 169, 108, 238, 62, 0, 193, 0, 109, 127, 83, 189, 81, 206, 238, 85, 214, 60, 203, 114, 138, 63, 193, 158, 57, 61, 108, 238, 62, 0, 193, 0, 109, 127, 83, 61, 81, 206 ),
"array_index_data": PoolByteArray(  ),
"blend_shape_data": [  ],
"format": 97303,
"index_count": 0,
"material": ExtResource( 2 ),
"primitive": 4,
"skeleton_aabb": [  ],
"vertex_count": 36
}

[sub_resource type="ConcavePolygonShape" id=2]
data = PoolVector3Array( 0.0538, 0.2284, 0, 0.0269, 0.2284, 0.0466, 0.014, 0.2844, 0.0243, 0.014, 0.2844, 0.0243, 0.0281, 0.2844, 0, 0.0538, 0.2284, 0, 0.0538, 0.2284, 0, 0.0281, 0.2844, 0, 0.014, 0.2844, -0.0243, 0.014, 0.2844, -0.0243, 0.0269, 0.2284, -0.0466, 0.0538, 0.2284, 0, -0.014, 0.2844, 0.0243, -0.0269, 0.2284, 0.0466, -0.0538, 0.2284, 0, -0.0538, 0.2284, 0, -0.0281, 0.2844, 0, -0.014, 0.2844, 0.0243, -0.0706, 0.0419, 0.0706, -0.0495, 0.0419, 0, -0.0248, 0.0419, 0.0429, -0.0248, 0.0419, 0.0429, 0.0706, 0.0419, 0.0706, -0.0706, 0.0419, 0.0706, -0.0248, 0.0419, 0.0429, 0, 0.0419, 0.0429, 0.0706, 0.0419, 0.0706, 0, 0.0419, 0.0429, 0.0248, 0.0419, 0.0429, 0.0706, 0.0419, 0.0706, 0.0248, 0.0419, 0.0429, 0.0495, 0.0419, 0, 0.0706, 0.0419, 0.0706, 0.0495, 0.0419, 0, 0.0706, 0.0419, -0.0706, 0.0706, 0.0419, 0.0706, -0.0495, 0.0419, 0, -0.0706, 0.0419, 0.0706, -0.0706, 0.0419, -0.0706, -0.0706, 0.0419, -0.0706, 0.0706, 0.0419, -0.0706, -0.0248, 0.0419, -0.0429, -0.0248, 0.0419, -0.0429, -0.0495, 0.0419, 0, -0.0706, 0.0419, -0.0706, 0.0706, 0.0419, -0.0706, 0, 0.0419, -0.0429, -0.0248, 0.0419, -0.0429, 0.0706, 0.0419, -0.0706, 0.0248, 0.0419, -0.0429, 0, 0.0419, -0.0429, 0.0706, 0.0419, -0.0706, 0.0495, 0.0419, 0, 0.0248, 0.0419, -0.0429, -0.0281, 0.2844, 0, -0.0538, 0.2284, 0, -0.0269, 0.2284, -0.0466, -0.0269, 0.2284, -0.0466, -0.014, 0.2844, -0.0243, -0.0281, 0.2844, 0, -0.014, 0.2844, -0.0243, -0.0269, 0.2284, -0.0466, 0, 0.2284, -0.0466, 0, 0.2284, -0.0466, 0.0269, 0.2284, -0.0466, -0.014, 0.2844, -0.0243, 0.0269, 0.2284, -0.0466, 0.014, 0.2844, -0.0243, -0.014, 0.2844, -0.0243, 0.014, 0.2844, 0.0243, 0.0269, 0.2284, 0.0466, 0, 0.2284, 0.0466, 0, 0.2284, 0.0466, -0.0269, 0.2284, 0.0466, 0.014, 0.2844, 0.0243, -0.0269, 0.2284, 0.0466, -0.014, 0.2844, 0.0243, 0.014, 0.2844, 0.0243, -0.0177, 0.2844, -0.0307, -0.0354, 0.2844, 0, -0.0281, 0.2844, 0, -0.0281, 0.2844, 0, -0.014, 0.2844, -0.0243, -0.0177, 0.2844, -0.0307, -0.014, 0.2844, -0.0243, 0.0177, 0.2844, -0.0307, -0.0177, 0.2844, -0.0307, -0.014, 0.2844, -0.0243, 0.014, 0.2844, -0.0243, 0.0177, 0.2844, -0.0307, 0.014, 0.2844, -0.0243, 0.0281, 0.2844, 0, 0.0177, 0.2844, -0.0307, 0.0281, 0.2844, 0, 0.0354, 0.2844, 0, 0.0177, 0.2844, -0.0307, -0.0281, 0.2844, 0, -0.0354, 0.2844, 0, -0.0177, 0.2844, 0.0307, -0.0177, 0.2844, 0.0307, -0.014, 0.2844, 0.0243, -0.0281, 0.2844, 0, -0.0177, 0.2844, 0.0307, 0.0177, 0.2844, 0.0307, -0.014, 0.2844, 0.0243, 0.0177, 0.2844, 0.0307, 0.0354, 0.2844, 0, 0.0281, 0.2844, 0, 0.0177, 0.2844, 0.0307, 0.014, 0.2844, 0.0243, -0.014, 0.2844, 0.0243, 0.0177, 0.2844, 0.0307, 0.0281, 0.2844, 0, 0.014, 0.2844, 0.0243, -0.0676, 1.229, 0, -0.1168, 1.1985, 0, -0.0584, 1.1985, -0.1012, -0.0584, 1.1985, -0.1012, -0.0338, 1.229, -0.0586, -0.0676, 1.229, 0, -0.0182, 1.0566, -0.0315, -0.0182, 1.0359, -0.0315, 0.0182, 1.0359, -0.0315, 0.0182, 1.0359, -0.0315, 0.0182, 1.0566, -0.0315, -0.0182, 1.0566, -0.0315, 0.0584, 1.1985, 0.1012, -0.0584, 1.1985, 0.1012, -0.0338, 1.229, 0.0586, -0.0338, 1.229, 0.0586, 0.0338, 1.229, 0.0586, 0.0584, 1.1985, 0.1012, -0.0273, 1.0359, -0.0157, -0.0363, 1.0359, 0, -0.0182, 1.0359, 0.0315, -0.0182, 1.0359, 0.0315, -0.0182, 1.0359, -0.0315, -0.0273, 1.0359, -0.0157, -0.0182, 1.0359, 0.0315, -0.017, 1.0359, 0, -0.0182, 1.0359, -0.0315, -0.017, 1.0359, 0, -0.0085, 1.0359, -0.0148, -0.0182, 1.0359, -0.0315, -0.0085, 1.0359, -0.0148, 0.0182, 1.0359, -0.0315, -0.0182, 1.0359, -0.0315, -0.0085, 1.0359, -0.0148, 0.0085, 1.0359, -0.0148, 0.0182, 1.0359, -0.0315, 0.0085, 1.0359, -0.0148, 0.017, 1.0359, 0, 0.0182, 1.0359, -0.0315, -0.0085, 1.0359, 0.0148, -0.017, 1.0359, 0, -0.0182, 1.0359, 0.0315, -0.0182, 1.0359, 0.0315, 0.0182, 1.0359, 0.0315, -0.0085, 1.0359, 0.0148, 0.0182, 1.0359, 0.0315, 0.0182, 1.0359, -0.0315, 0.017, 1.0359, 0, 0.0182, 1.0359, 0.0315, 0.0085, 1.0359, 0.0148, -0.0085, 1.0359, 0.0148, 0.0182, 1.0359, 0.0315, 0.017, 1.0359, 0, 0.0085, 1.0359, 0.0148, 0.0182, 1.0359, 0.0315, 0.0273, 1.0359, 0.0157, 0.0182, 1.0359, -0.0315, 0.0273, 1.0359, 0.0157, 0.0363, 1.0359, 0, 0.0182, 1.0359, -0.0315, -0.0584, 1.1985, -0.1012, -0.1168, 1.1985, 0, -0.0727, 1.1985, 0, -0.0727, 1.1985, 0, -0.0363, 1.1985, -0.0629, -0.0584, 1.1985, -0.1012, -0.0363, 1.1985, -0.0629, 0.0584, 1.1985, -0.1012, -0.0584, 1.1985, -0.1012, -0.0363, 1.1985, -0.0629, 0.0363, 1.1985, -0.0629, 0.0584, 1.1985, -0.1012, 0.0363, 1.1985, -0.0629, 0.0727, 1.1985, 0, 0.0584, 1.1985, -0.1012, 0.0727, 1.1985, 0, 0.1168, 1.1985, 0, 0.0584, 1.1985, -0.1012, -0.0727, 1.1985, 0, -0.1168, 1.1985, 0, -0.0584, 1.1985, 0.1012, -0.0584, 1.1985, 0.1012, -0.0363, 1.1985, 0.0629, -0.0727, 1.1985, 0, -0.0584, 1.1985, 0.1012, 0.0584, 1.1985, 0.1012, -0.0363, 1.1985, 0.0629, 0.0584, 1.1985, 0.1012, 0.1168, 1.1985, 0, 0.0727, 1.1985, 0, 0.0584, 1.1985, 0.1012, 0.0363, 1.1985, 0.0629, -0.0363, 1.1985, 0.0629, 0.0584, 1.1985, 0.1012, 0.0727, 1.1985, 0, 0.0363, 1.1985, 0.0629, 0.0584, 1.1985, 0.1012, 0.0338, 1.229, 0.0586, 0.0676, 1.229, 0, 0.0676, 1.229, 0, 0.1168, 1.1985, 0, 0.0584, 1.1985, 0.1012, -0.0338, 1.229, -0.0586, -0.0584, 1.1985, -0.1012, 0.0584, 1.1985, -0.1012, 0.0584, 1.1985, -0.1012, 0.0338, 1.229, -0.0586, -0.0338, 1.229, -0.0586, -0.0584, 1.1985, 0.1012, -0.1168, 1.1985, 0, -0.0676, 1.229, 0, -0.0676, 1.229, 0, -0.0338, 1.229, 0.0586, -0.0584, 1.1985, 0.1012, 0.0676, 1.229, 0, 0.0338, 1.229, -0.0586, 0.0584, 1.1985, -0.1012, 0.0584, 1.1985, -0.1012, 0.1168, 1.1985, 0, 0.0676, 1.229, 0, 0.0182, 1.0359, -0.0315, 0.0363, 1.0359, 0, 0.0363, 1.0566, 0, 0.0363, 1.0566, 0, 0.0182, 1.0566, -0.0315, 0.0182, 1.0359, -0.0315, 0.0169, 1.2819, 0.0293, 0.0338, 1.229, 0.0586, -0.0338, 1.229, 0.0586, -0.0338, 1.229, 0.0586, -0.0169, 1.2819, 0.0293, 0.0169, 1.2819, 0.0293, -0.0169, 1.2819, -0.0293, -0.0338, 1.229, -0.0586, 0.0338, 1.229, -0.0586, 0.0338, 1.229, -0.0586, 0.0169, 1.2819, -0.0293, -0.0169, 1.2819, -0.0293, 0.0182, 1.0566, 0.0315, 0.0182, 1.0359, 0.0315, -0.0182, 1.0359, 0.0315, -0.0182, 1.0359, 0.0315, -0.0182, 1.0566, 0.0315, 0.0182, 1.0566, 0.0315, 0.0182, 1.0566, -0.0315, 0.0363, 1.0566, 0, 0.0523, 1.0816, 0, 0.0523, 1.0816, 0, 0.0262, 1.0816, -0.0453, 0.0182, 1.0566, -0.0315, -0.0262, 1.0816, -0.0453, -0.0523, 1.0816, 0, -0.0363, 1.0566, 0, -0.0363, 1.0566, 0, -0.0182, 1.0566, -0.0315, -0.0262, 1.0816, -0.0453, -0.0182, 1.0566, -0.0315, -0.0363, 1.0566, 0, -0.0363, 1.0359, 0, -0.0363, 1.0359, 0, -0.0273, 1.0359, -0.0157, -0.0182, 1.0566, -0.0315, -0.0273, 1.0359, -0.0157, -0.0182, 1.0359, -0.0315, -0.0182, 1.0566, -0.0315, 0.0262, 1.0816, 0.0453, 0.0182, 1.0566, 0.0315, -0.0182, 1.0566, 0.0315, -0.0182, 1.0566, 0.0315, -0.0262, 1.0816, 0.0453, 0.0262, 1.0816, 0.0453, -0.0363, 1.0566, 0, -0.0182, 1.0566, 0.0315, -0.0182, 1.0359, 0.0315, -0.0182, 1.0359, 0.0315, -0.0363, 1.0359, 0, -0.0363, 1.0566, 0, -0.0169, 1.2819, 0.0293, -0.0338, 1.229, 0.0586, -0.0676, 1.229, 0, -0.0676, 1.229, 0, -0.0338, 1.2819, 0, -0.0169, 1.2819, 0.0293, -0.0262, 1.0816, -0.0453, -0.0182, 1.0566, -0.0315, 0.0182, 1.0566, -0.0315, 0.0182, 1.0566, -0.0315, 0.0262, 1.0816, -0.0453, -0.0262, 1.0816, -0.0453, -0.0338, 1.2819, 0, -0.0676, 1.229, 0, -0.0338, 1.229, -0.0586, -0.0338, 1.229, -0.0586, -0.0169, 1.2819, -0.0293, -0.0338, 1.2819, 0, -0.0523, 1.0816, 0, -0.0262, 1.0816, 0.0453, -0.0182, 1.0566, 0.0315, -0.0182, 1.0566, 0.0315, -0.0363, 1.0566, 0, -0.0523, 1.0816, 0, 0.0273, 1.0359, 0.0157, 0.0182, 1.0359, 0.0315, 0.0182, 1.0566, 0.0315, 0.0182, 1.0566, 0.0315, 0.0363, 1.0566, 0, 0.0273, 1.0359, 0.0157, 0.0363, 1.0566, 0, 0.0363, 1.0359, 0, 0.0273, 1.0359, 0.0157, 0.0182, 1.0566, 0.0315, 0.0262, 1.0816, 0.0453, 0.0523, 1.0816, 0, 0.0523, 1.0816, 0, 0.0363, 1.0566, 0, 0.0182, 1.0566, 0.0315, 0.0676, 1.229, 0, 0.0338, 1.2819, 0, 0.0169, 1.2819, -0.0293, 0.0169, 1.2819, -0.0293, 0.0338, 1.229, -0.0586, 0.0676, 1.229, 0, 0.0676, 1.229, 0, 0.0338, 1.229, 0.0586, 0.0169, 1.2819, 0.0293, 0.0169, 1.2819, 0.0293, 0.0338, 1.2819, 0, 0.0676, 1.229, 0, -0.0169, 1.2819, 0.0293, -0.0338, 1.2819, 0, -0.0169, 1.2819, -0.0293, -0.0169, 1.2819, -0.0293, 0.0169, 1.2819, -0.0293, -0.0169, 1.2819, 0.0293, 0.0169, 1.2819, -0.0293, 0.0169, 1.2819, 0.0293, -0.0169, 1.2819, 0.0293, 0.0169, 1.2819, -0.0293, 0.0338, 1.2819, 0, 0.0169, 1.2819, 0.0293, 0.0706, 0.0419, 0.0706, 0.0768, 0, 0.0768, -0.0768, 0, 0.0768, -0.0768, 0, 0.0768, -0.0706, 0.0419, 0.0706, 0.0706, 0.0419, 0.0706, -0.0269, 0.2284, -0.0466, -0.0538, 0.2284, 0, -0.0495, 0.0419, 0, -0.0495, 0.0419, 0, -0.0248, 0.0419, -0.0429, -0.0269, 0.2284, -0.0466, -0.0706, 0.0419, -0.0706, -0.0768, 0, -0.0768, 0.0768, 0, -0.0768, 0.0768, 0, -0.0768, 0.0706, 0.0419, -0.0706, -0.0706, 0.0419, -0.0706, 0.0768, 0, -0.0768, 0.0768, 0, 0.0768, 0.0706, 0.0419, 0.0706, 0.0706, 0.0419, 0.0706, 0.0706, 0.0419, -0.0706, 0.0768, 0, -0.0768, 0.0248, 0.0419, 0.0429, 0.0269, 0.2284, 0.0466, 0.0538, 0.2284, 0, 0.0538, 0.2284, 0, 0.0495, 0.0419, 0, 0.0248, 0.0419, 0.0429, -0.0538, 0.2284, 0, -0.0269, 0.2284, 0.0466, -0.0248, 0.0419, 0.0429, -0.0248, 0.0419, 0.0429, -0.0495, 0.0419, 0, -0.0538, 0.2284, 0, -0.0269, 0.2284, -0.0466, -0.0248, 0.0419, -0.0429, 0, 0.0419, -0.0429, 0, 0.0419, -0.0429, 0.0248, 0.0419, -0.0429, -0.0269, 0.2284, -0.0466, 0.0248, 0.0419, -0.0429, 0.0269, 0.2284, -0.0466, -0.0269, 0.2284, -0.0466, 0.0269, 0.2284, -0.0466, 0, 0.2284, -0.0466, -0.0269, 0.2284, -0.0466, 0.0495, 0.0419, 0, 0.0538, 0.2284, 0, 0.0269, 0.2284, -0.0466, 0.0269, 0.2284, -0.0466, 0.0248, 0.0419, -0.0429, 0.0495, 0.0419, 0, 0.0269, 0.2284, 0.0466, 0.0248, 0.0419, 0.0429, 0, 0.0419, 0.0429, 0, 0.0419, 0.0429, -0.0248, 0.0419, 0.0429, 0.0269, 0.2284, 0.0466, -0.0248, 0.0419, 0.0429, -0.0269, 0.2284, 0.0466, 0.0269, 0.2284, 0.0466, -0.0269, 0.2284, 0.0466, 0, 0.2284, 0.0466, 0.0269, 0.2284, 0.0466, -0.0706, 0.0419, 0.0706, -0.0768, 0, 0.0768, -0.0768, 0, -0.0768, -0.0768, 0, -0.0768, -0.0706, 0.0419, -0.0706, -0.0706, 0.0419, 0.0706, -0.0177, 0.2979, -0.0307, -0.0354, 0.2979, 0, -0.0354, 0.2844, 0, -0.0354, 0.2844, 0, -0.0177, 0.2844, -0.0307, -0.0177, 0.2979, -0.0307, 0.0177, 0.2979, 0.0307, 0.0177, 0.2844, 0.0307, -0.0177, 0.2844, 0.0307, -0.0177, 0.2844, 0.0307, -0.0177, 0.2979, 0.0307, 0.0177, 0.2979, 0.0307, -0.0354, 0.2979, 0, -0.0177, 0.2979, 0.0307, -0.0177, 0.2844, 0.0307, -0.0177, 0.2844, 0.0307, -0.0354, 0.2844, 0, -0.0354, 0.2979, 0, 0.0354, 0.2844, 0, 0.0177, 0.2844, 0.0307, 0.0177, 0.2979, 0.0307, 0.0177, 0.2979, 0.0307, 0.0354, 0.2979, 0, 0.0354, 0.2844, 0, -0.0177, 0.2979, -0.0307, -0.0177, 0.2844, -0.0307, 0.0177, 0.2844, -0.0307, 0.0177, 0.2844, -0.0307, 0.0177, 0.2979, -0.0307, -0.0177, 0.2979, -0.0307, 0.0177, 0.2844, -0.0307, 0.0354, 0.2844, 0, 0.0354, 0.2979, 0, 0.0354, 0.2979, 0, 0.0177, 0.2979, -0.0307, 0.0177, 0.2844, -0.0307, 0.0123, 0.3115, 0.0214, 0.0177, 0.2979, 0.0307, -0.0177, 0.2979, 0.0307, -0.0177, 0.2979, 0.0307, -0.0123, 0.3115, 0.0214, 0.0123, 0.3115, 0.0214, 0.0354, 0.2979, 0, 0.0177, 0.2979, 0.0307, 0.0123, 0.3115, 0.0214, 0.0123, 0.3115, 0.0214, 0.0247, 0.3115, 0, 0.0354, 0.2979, 0, -0.0123, 0.3115, 0.0214, -0.0177, 0.2979, 0.0307, -0.0354, 0.2979, 0, -0.0354, 0.2979, 0, -0.0247, 0.3115, 0, -0.0123, 0.3115, 0.0214, -0.0123, 0.3115, -0.0214, -0.0247, 0.3115, 0, -0.0354, 0.2979, 0, -0.0354, 0.2979, 0, -0.0177, 0.2979, -0.0307, -0.0123, 0.3115, -0.0214, -0.0123, 0.3115, -0.0214, -0.0177, 0.2979, -0.0307, 0.0177, 0.2979, -0.0307, 0.0177, 0.2979, -0.0307, 0.0123, 0.3115, -0.0214, -0.0123, 0.3115, -0.0214, 0.0354, 0.2979, 0, 0.0247, 0.3115, 0, 0.0123, 0.3115, -0.0214, 0.0123, 0.3115, -0.0214, 0.0177, 0.2979, -0.0307, 0.0354, 0.2979, 0, 0.0247, 0.3115, 0, 0.0123, 0.3115, 0.0214, 0.0085, 1.0359, 0.0148, 0.0085, 1.0359, 0.0148, 0.017, 1.0359, 0, 0.0247, 0.3115, 0, -0.0085, 1.0359, -0.0148, -0.0123, 0.3115, -0.0214, 0.0123, 0.3115, -0.0214, 0.0123, 0.3115, -0.0214, 0.0085, 1.0359, -0.0148, -0.0085, 1.0359, -0.0148, -0.0085, 1.0359, 0.0148, -0.0123, 0.3115, 0.0214, -0.0247, 0.3115, 0, -0.0247, 0.3115, 0, -0.017, 1.0359, 0, -0.0085, 1.0359, 0.0148, -0.017, 1.0359, 0, -0.0247, 0.3115, 0, -0.0123, 0.3115, -0.0214, -0.0123, 0.3115, -0.0214, -0.0085, 1.0359, -0.0148, -0.017, 1.0359, 0, 0.0123, 0.3115, -0.0214, 0.0247, 0.3115, 0, 0.017, 1.0359, 0, 0.017, 1.0359, 0, 0.0085, 1.0359, -0.0148, 0.0123, 0.3115, -0.0214, 0.0085, 1.0359, 0.0148, 0.0123, 0.3115, 0.0214, -0.0123, 0.3115, 0.0214, -0.0123, 0.3115, 0.0214, -0.0085, 1.0359, 0.0148, 0.0085, 1.0359, 0.0148, 0.0262, 1.0816, -0.0453, 0.0523, 1.0816, 0, 0.0727, 1.1985, 0, 0.0727, 1.1985, 0, 0.0363, 1.1985, -0.0629, 0.0262, 1.0816, -0.0453, -0.0363, 1.1985, -0.0629, -0.0262, 1.0816, -0.0453, 0.0262, 1.0816, -0.0453, 0.0262, 1.0816, -0.0453, 0.0363, 1.1985, -0.0629, -0.0363, 1.1985, -0.0629, -0.0363, 1.1985, -0.0629, -0.0727, 1.1985, 0, -0.0523, 1.0816, 0, -0.0523, 1.0816, 0, -0.0262, 1.0816, -0.0453, -0.0363, 1.1985, -0.0629, 0.0363, 1.1985, 0.0629, 0.0262, 1.0816, 0.0453, -0.0262, 1.0816, 0.0453, -0.0262, 1.0816, 0.0453, -0.0363, 1.1985, 0.0629, 0.0363, 1.1985, 0.0629, -0.0727, 1.1985, 0, -0.0363, 1.1985, 0.0629, -0.0262, 1.0816, 0.0453, -0.0262, 1.0816, 0.0453, -0.0523, 1.0816, 0, -0.0727, 1.1985, 0, 0.0262, 1.0816, 0.0453, 0.0363, 1.1985, 0.0629, 0.0727, 1.1985, 0, 0.0727, 1.1985, 0, 0.0523, 1.0816, 0, 0.0262, 1.0816, 0.0453 )

[node name="lightpost" type="StaticBody"]
collision_layer = 2

[node name="lightpostClone" type="MeshInstance" parent="."]
mesh = SubResource( 1 )
material/0 = null
material/1 = null

[node name="CollisionShape" type="CollisionShape" parent="."]
shape = SubResource( 2 )
