[gd_scene load_steps=3 format=2]

[sub_resource type="CubeMesh" id=1]

[sub_resource type="BoxShape" id=2]

[node name="Lot Base" type="Spatial"]

[node name="MeshInstance" type="MeshInstance" parent="."]
transform = Transform( 5, 0, 0, 0, 1, 0, 0, 0, 5, 0, -1, -5 )
mesh = SubResource( 1 )
material/0 = null

[node name="StaticBody" type="StaticBody" parent="MeshInstance"]

[node name="CollisionShape" type="CollisionShape" parent="MeshInstance/StaticBody"]
transform = Transform( 1, 0, 0, 0, 1, 0, 0, 0, 1, 0, 0, 0 )
shape = SubResource( 2 )
