[gd_scene load_steps=3 format=2]

[sub_resource type="CubeMesh" id=1]

[sub_resource type="BoxShape" id=2]

[node name="TrackBase" type="MeshInstance"]
transform = Transform( 28, 0, 0, 0, 1, 0, 0, 0, 2.5, 24, -1, 2 )
mesh = SubResource( 1 )
material/0 = null

[node name="StaticBody" type="StaticBody" parent="."]
collision_layer = 2

[node name="CollisionShape" type="CollisionShape" parent="StaticBody"]
shape = SubResource( 2 )
